<?xml version="1.0" encoding="utf-8"?>
<!-- Generator: Adobe Illustrator 24.0.1, SVG Export Plug-In . SVG Version: 6.00 Build 0)  -->
<svg version="1.1" id="Layer_1" xmlns="http://www.w3.org/2000/svg" xmlns:xlink="http://www.w3.org/1999/xlink" x="0px" y="0px"
	 viewBox="0 0 47.3 227.9" style="enable-background:new 0 0 47.3 227.9;" xml:space="preserve">
<g>
	<g>
		<path d="M23.5,0C10.8,0,0.9,6.8,0.9,18.9c0,36.8,4.3,89.7,4.3,126.5c0,9.6,8.4,13.6,18.2,13.6c7.4,0,17.9-4,17.9-13.6
			c0-36.8,4.3-89.7,4.3-126.5C45.8,6.8,35.6,0,23.5,0z"/>
	</g>
</g>
<g>
	<g>
		<path d="M23.8,180.3C10.2,180.3,0,191.1,0,204.1c0,12.7,10.2,23.8,23.8,23.8c12.7,0,23.5-11.1,23.5-23.8
			C47.3,191.1,36.5,180.3,23.8,180.3z"/>
	</g>
</g>
</svg>
