<?xml version="1.0" encoding="utf-8"?>
<!-- Generator: Adobe Illustrator 24.0.1, SVG Export Plug-In . SVG Version: 6.00 Build 0)  -->
<svg version="1.1" id="Capa_1" xmlns="http://www.w3.org/2000/svg" xmlns:xlink="http://www.w3.org/1999/xlink" x="0px" y="0px"
	 viewBox="0 0 512 512" style="enable-background:new 0 0 512 512;" xml:space="preserve">
<g>
	<g>
		<path d="M-0.5,211c0.2,12.8,5.4,24.7,14.3,33.4c-9.8,11-14.7,25.7-13.2,40.9c2.8,27.1,27.5,48,56.2,47.7l131.8-1.6
			c-6.3,19.9-16.3,56.3-16,85.5c0.5,46.3,40.3,84.9,65,84.6c22.1-0.3,37.8-12.9,38.5-13.4c2.5-2.1,4-5.1,3.9-8.4l-0.9-72.3
			L339,273.6l2.5-1.3l0,4.1c0.1,5.9,4.9,10.6,10.8,10.5l106.7-1.3c29.4-0.3,53-24.5,52.7-54l-2-170.7c-0.3-29.4-24.5-53-54-52.7
			l-64,0.8c-23.1,0.3-42.6,15.2-49.8,35.9c-17.9-8.9-41.8-13.4-56.6-13.3L89.6,33.9c-23.2,0.3-43.4,16.2-47.9,37.8
			c-2.3,11.2-0.8,22.3,4.2,32c-15.6,8.1-26.1,24.5-25.8,43c0.1,7.6,1.9,14.8,5.2,21.3C9.6,176.1-0.8,192.5-0.5,211z M44.1,184.2
			c4.1-0.5,7.6-3.4,8.8-7.3c1.3-4,0.1-8.3-2.9-11.1c-5.5-5-8.6-11.9-8.7-19.2c-0.2-13.5,9.9-24.9,23.3-26.6c4.1-0.5,7.6-3.4,8.8-7.3
			c1.3-4,0.1-8.3-2.9-11.1c-7.1-6.5-10-15.8-8-25.4C65,64.2,76.5,55.4,89.8,55.3L285.6,53c17.3-0.2,46.5,7.6,56.7,17.6
			c3.1,3,7.7,3.8,11.7,2.2c4-1.7,6.5-5.6,6.5-9.9c-0.2-17.6,14-32.2,31.6-32.4l64-0.8c17.6-0.2,32.2,14,32.4,31.6l2,170.7
			c0.2,17.6-14,32.2-31.6,32.4l-96,1.1l-0.1-10.7c0-3.7-2-7.1-5.2-9c-3.1-1.8-7.1-2-10.4-0.3l-21.2,10.9c-2.1,1.1-3.8,2.9-4.8,5.1
			l-62.4,139.4c-0.6,1.4-0.9,3-0.9,4.5l0.8,68.9c-4.4,2.5-12.1,5.9-21.3,6c-11.7,0.1-43-28.6-43.4-63.5
			c-0.4-37.5,19.4-91.9,19.5-92.4c1.2-3.3,0.7-7-1.3-9.8c-2-2.9-5.3-4.5-8.8-4.5l-146.8,1.7c-17.8,0.2-33-12.3-34.7-28.6
			c-1.3-12.1,4.4-23.8,14.8-30.4c3.2-2,5.1-5.7,4.9-9.6c-0.2-3.9-2.5-7.3-5.9-9c-9.1-4.5-14.8-13.5-14.9-23.4
			C20.6,197.3,30.7,185.9,44.1,184.2z"/>
	</g>
</g>
<g>
	<g>
		<path d="M352.1,265.5c5.9-0.1,10.6-4.9,10.5-10.8l-2.3-192c-0.1-5.9-4.9-10.6-10.8-10.5c-5.9,0.1-10.6,4.9-10.5,10.8l2.3,192
			C341.4,260.9,346.2,265.6,352.1,265.5z"/>
	</g>
</g>
</svg>
