<?xml version="1.0" encoding="utf-8"?>
<!-- Generator: Adobe Illustrator 24.0.1, SVG Export Plug-In . SVG Version: 6.00 Build 0)  -->
<svg version="1.1" id="Capa_1" xmlns="http://www.w3.org/2000/svg" xmlns:xlink="http://www.w3.org/1999/xlink" x="0px" y="0px"
	 viewBox="0 0 214.9 214.9" style="enable-background:new 0 0 214.9 214.9;" xml:space="preserve">
<g>
	<path d="M147.6,56.1c-5.2-2.9-11,2.7-14.4,6c-7.8,7.9-14.4,17-21.9,25.4c-8.2,9.1-15.8,18.3-24.3,27.2c-4.8,5-10,10.4-13.2,16.6
		c-7.2-7.3-13.4-15.2-21.5-21.6c-5.8-4.6-15.4-7.9-15.2,3.1c0.4,14.3,12.6,29.7,21.7,39.5c3.8,4.2,8.8,8.5,14.6,8.7
		c7,0.4,14.2-8.3,18.5-13.1c7.4-8.3,13.4-17.7,20.3-26.2c8.8-11.2,17.9-22.2,26.5-33.7C143.9,81,161,63.6,147.6,56.1z M45.8,112
		c-0.2,0-0.4,0-0.8,0.2c-0.8-0.2-1.4-0.4-2.2-0.8l0,0C43.4,111,44.4,111.2,45.8,112z"/>
</g>
<g>
	<path d="M179.9,56.1c-5.3-3.2-11.2,2.9-14.7,6.5c-7.9,8.6-14.7,18.5-22.2,27.5c-8.3,9.9-16.1,19.9-24.6,29.6
		c-4.9,5.4-10.2,11.3-13.4,18.1c-7.3-7.9-13.6-16.5-21.8-23.5c-5.9-5-15.7-8.6-15.5,3.4c0.4,15.6,12.8,32.3,22,42.9
		c3.9,4.5,9,9.3,14.9,9.5c7.1,0.5,14.5-9,18.7-14.2c7.5-9,13.6-19.2,20.6-28.4c9-12.2,18.1-24.1,26.9-36.6
		C176.2,83.2,193.5,64.3,179.9,56.1z M76.6,116.8c-0.2,0-0.4,0-0.8,0.2c-0.8-0.2-1.4-0.5-2.2-0.9l0,0
		C74.2,115.7,75.2,115.9,76.6,116.8z"/>
</g>
</svg>
