<?xml version="1.0" encoding="utf-8"?>
<!-- Generator: Adobe Illustrator 24.0.1, SVG Export Plug-In . SVG Version: 6.00 Build 0)  -->
<svg version="1.1" id="Capa_1" xmlns="http://www.w3.org/2000/svg" xmlns:xlink="http://www.w3.org/1999/xlink" x="0px" y="0px"
	 viewBox="0 0 480 480" style="enable-background:new 0 0 480 480;" xml:space="preserve">
<style type="text/css">
	.st0{fill:none;stroke:#CCCCCC;stroke-width:20;stroke-miterlimit:10;}
	.st1{fill:#CCCCCC;}
</style>
<g>
	<circle class="st0" cx="240" cy="240" r="216"/>
</g>
<g>
	<g>
		<g>
			<path class="st1" d="M124,100.8v37.1h9.3v157.7h97.6l-55,76.1c-1.5,2.1-1,5,1,6.5c2.1,1.5,5,1,6.5-1l51.9-71.9v69.2
				c0,2.6,2.1,4.6,4.6,4.6s4.6-2.1,4.6-4.6v-69.2l51.9,71.9c1.5,2.1,4.4,2.5,6.5,1c2.1-1.5,2.5-4.4,1-6.5l-55-76.1h97.6V137.9h9.3
				v-37.1H124z M337.4,286.4H142.6V137.9h194.8V286.4z M346.7,128.7H133.3v-18.6h213.4V128.7z"/>
		</g>
	</g>
	<g>
		<g>
			<path class="st1" d="M317.4,232.1c-1.8-1.7-4.6-1.7-6.4,0l-33.8,33.8l-10.6-10.6c-1.8-1.8-4.7-1.8-6.6,0c-1.8,1.8-1.8,4.7,0,6.6
				l13.9,13.9c1.8,1.8,4.7,1.8,6.6,0l37.1-37.1C319.3,236.8,319.2,233.9,317.4,232.1z"/>
		</g>
	</g>
	<g>
		<g>
			<path class="st1" d="M240,193.6h-4.9c-2.2-19.4-17.5-34.6-36.8-36.8v-4.9c0-2.6-2.1-4.6-4.6-4.6c-2.6,0-4.6,2.1-4.6,4.6v4.9
				c-22.9,2.6-39.3,23.3-36.7,46.3c2.4,21,20.2,36.9,41.3,37c21.3,0,39.1-16,41.5-37.1h4.9c2.6,0,4.6-2.1,4.6-4.6
				S242.6,193.6,240,193.6z M189,230.4c-17.8-2.5-30.1-19-27.6-36.7c2-14.3,13.3-25.5,27.6-27.6v32.1c0,2.6,2.1,4.6,4.6,4.6h32.1
				C223.2,220.6,206.7,233,189,230.4z M198.2,193.6v-27.5c14.2,2.1,25.4,13.2,27.5,27.5H198.2z"/>
		</g>
	</g>
	<g>
		<g>
			<rect x="253.9" y="175.1" class="st1" width="9.3" height="9.3"/>
		</g>
	</g>
	<g>
		<g>
			<rect x="272.5" y="175.1" class="st1" width="55.7" height="9.3"/>
		</g>
	</g>
	<g>
		<g>
			<rect x="253.9" y="156.5" class="st1" width="9.3" height="9.3"/>
		</g>
	</g>
	<g>
		<g>
			<rect x="272.5" y="156.5" class="st1" width="55.7" height="9.3"/>
		</g>
	</g>
	<g>
		<g>
			<rect x="253.9" y="212.2" class="st1" width="9.3" height="9.3"/>
		</g>
	</g>
	<g>
		<g>
			<rect x="272.5" y="212.2" class="st1" width="55.7" height="9.3"/>
		</g>
	</g>
	<g>
		<g>
			<rect x="253.9" y="193.6" class="st1" width="9.3" height="9.3"/>
		</g>
	</g>
	<g>
		<g>
			<rect x="272.5" y="193.6" class="st1" width="55.7" height="9.3"/>
		</g>
	</g>
</g>
</svg>
