<?xml version="1.0" encoding="utf-8"?>
<!-- Generator: Adobe Illustrator 24.0.1, SVG Export Plug-In . SVG Version: 6.00 Build 0)  -->
<svg version="1.1" id="Capa_1" xmlns="http://www.w3.org/2000/svg" xmlns:xlink="http://www.w3.org/1999/xlink" x="0px" y="0px"
	 viewBox="0 0 186.3 173.9" style="enable-background:new 0 0 186.3 173.9;" xml:space="preserve">
<style type="text/css">
	.st0{fill:#222221;}
	.st1{fill:#FFFFFF;}
	.st2{fill-rule:evenodd;clip-rule:evenodd;fill:#FFFFFF;}
	.st3{fill-rule:evenodd;clip-rule:evenodd;fill:#FFFFFF;stroke:#222221;stroke-miterlimit:10;}
	.st4{fill:none;stroke:#222221;stroke-width:1.5;stroke-miterlimit:10;}
	.st5{fill-rule:evenodd;clip-rule:evenodd;fill:#222221;}
</style>
<g id="XMLID_1977_">
	<path id="XMLID_1986_" class="st0" d="M-653.4,126.9L-653.4,126.9c-10.5,0-19-8.5-19-19v0c0-10.5,8.5-19,19-19l0,0
		c10.5,0,19,8.5,19,19v0C-634.3,118.4-642.9,126.9-653.4,126.9z"/>
	<path id="XMLID_1978_" class="st1" d="M-664,107.9c0,5.9,4.7,10.6,10.6,10.6c0.7,0,1.3-0.1,2-0.2c0.9,0.6,2,0.9,3.2,0.9
		c3.4,0,6.2-2.8,6.2-6.2c0-1.2-0.3-2.3-0.9-3.3c0.1-0.6,0.2-1.2,0.2-1.8c0-5.9-4.7-10.6-10.6-10.6c-0.7,0-1.3,0.1-2,0.2
		c-0.9-0.6-2-0.9-3.2-0.9c-3.4,0-6.2,2.8-6.2,6.2c0,1.2,0.3,2.3,0.9,3.2C-663.9,106.6-664,107.2-664,107.9z M-653.3,100.3
		c3.4,0.2,5.4,1.7,5.6,3.1c0.1,0.9-0.5,1.6-1.6,1.6c-1.5,0-1.7-2.1-4.4-2.1c-1.2,0-2.2,0.5-2.2,1.6c0,2.3,8.5,0.9,8.5,5.9
		c0,2.9-2.3,4.8-5.7,4.8c-3,0-6.1-1.4-6-3.7c0-0.7,0.5-1.4,1.2-1.4c1.8,0,1.8,2.6,4.6,2.6c2,0,2.7-1.1,2.7-1.8
		c0-2.7-8.6-1.1-8.6-6.2C-659.1,102-656.8,100.1-653.3,100.3z"/>
</g>
<g id="XMLID_1967_">
	<path id="XMLID_1974_" class="st0" d="M-653.4,180.8L-653.4,180.8c-10.5,0-19-8.5-19-19v0c0-10.5,8.5-19,19-19l0,0
		c10.5,0,19,8.5,19,19v0C-634.3,172.3-642.9,180.8-653.4,180.8z"/>
	<g id="XMLID_1968_" transform="translate(-1)">
		<path id="XMLID_1973_" class="st1" d="M-664.1,155.6l5.8,3.7l5.8-3.7l-5.8-3.7L-664.1,155.6z"/>
		<path id="XMLID_1972_" class="st1" d="M-652.4,155.6l5.8,3.7l5.8-3.7l-5.8-3.7L-652.4,155.6z"/>
		<path id="XMLID_1971_" class="st1" d="M-664.1,163l5.8,3.7l5.8-3.7l-5.8-3.7L-664.1,163z"/>
		<path id="XMLID_1970_" class="st1" d="M-646.5,159.3l-5.8,3.7l5.8,3.7l5.8-3.7L-646.5,159.3z"/>
		<path id="XMLID_1969_" class="st1" d="M-658.2,168l5.8,3.7l5.8-3.7l-5.8-3.7L-658.2,168z"/>
	</g>
</g>
<g id="XMLID_1859_">
	<path id="XMLID_1964_" class="st0" d="M-709.1,126.9L-709.1,126.9c-10.5,0-19-8.5-19-19v0c0-10.5,8.5-19,19-19h0
		c10.5,0,19,8.5,19,19v0C-690.1,118.4-698.6,126.9-709.1,126.9z"/>
	<g id="XMLID_1863_">
		<path id="XMLID_1872_" class="st2" d="M-698.7,107.3c-0.1-5.5-4.7-9.9-10.2-9.9c-5.5,0-10,4.3-10.2,9.7c0,0.1,0,0.3,0,0.4
			c0,1.9,0.5,3.7,1.5,5.3l-1.8,5.5l5.7-1.8c1.5,0.8,3.2,1.3,5,1.3c5.7,0,10.2-4.6,10.2-10.2C-698.7,107.5-698.7,107.4-698.7,107.3z
			 M-708.9,116.1c-1.8,0-3.4-0.5-4.7-1.4l-3.3,1.1l1.1-3.2c-1-1.4-1.6-3.1-1.6-5c0-0.3,0-0.6,0-0.8c0.4-4.3,4.1-7.7,8.6-7.7
			c4.5,0,8.2,3.5,8.6,7.9c0,0.2,0,0.4,0,0.7C-700.3,112.3-704.2,116.1-708.9,116.1z"/>
		<path id="XMLID_1864_" class="st2" d="M-704.2,109.6c-0.3-0.1-1.5-0.7-1.7-0.8c-0.2-0.1-0.4-0.1-0.6,0.1c-0.2,0.2-0.7,0.8-0.8,1
			c-0.1,0.2-0.3,0.2-0.5,0.1c-0.2-0.1-1.1-0.4-2-1.2c-0.7-0.7-1.3-1.5-1.4-1.7c-0.1-0.2,0-0.4,0.1-0.5c0.1-0.1,0.2-0.3,0.4-0.4
			c0,0,0.1-0.1,0.1-0.1c0.1-0.1,0.1-0.2,0.2-0.3c0.1-0.2,0-0.3,0-0.4c-0.1-0.1-0.6-1.4-0.8-1.9c-0.2-0.5-0.4-0.4-0.6-0.4
			c-0.1,0-0.3,0-0.5,0s-0.4,0.1-0.7,0.3c-0.2,0.2-0.9,0.9-0.9,2.1c0,0.3,0.1,0.6,0.1,0.8c0.3,0.9,0.8,1.6,0.9,1.7
			c0.1,0.2,1.7,2.8,4.3,3.8c2.6,1,2.6,0.7,3,0.6c0.5,0,1.5-0.6,1.7-1.2c0.2-0.6,0.2-1.1,0.1-1.2C-703.8,109.8-704,109.8-704.2,109.6
			z"/>
	</g>
</g>
<g id="XMLID_1728_">
	<path id="XMLID_1858_" class="st0" d="M-709.1,180.8L-709.1,180.8c-10.5,0-19-8.5-19-19v0c0-10.5,8.5-19,19-19h0
		c10.5,0,19,8.5,19,19v0C-690.1,172.3-698.6,180.8-709.1,180.8z"/>
	<g id="XMLID_1729_">
		<path id="XMLID_1846_" class="st1" d="M-694.5,154.4c-0.4-1.3-1.4-2.4-2.7-2.7c-2.4-0.6-11.9-0.6-11.9-0.6s-9.5,0-11.9,0.6
			c-1.3,0.4-2.3,1.4-2.7,2.7c-0.6,2.4-0.6,7.4-0.6,7.4s0,5,0.6,7.4c0.4,1.3,1.4,2.4,2.7,2.7c2.4,0.6,11.9,0.6,11.9,0.6
			s9.5,0,11.9-0.6c1.3-0.4,2.3-1.4,2.7-2.7c0.6-2.4,0.6-7.4,0.6-7.4S-693.9,156.8-694.5,154.4z"/>
		<polygon id="XMLID_1730_" class="st0" points="-712.2,166.3 -712.2,157.2 -704.3,161.8 		"/>
	</g>
</g>
<g id="XMLID_1723_">
	<path id="XMLID_1725_" class="st0" d="M-764.5,19L-764.5,19c-10.5,0-19-8.5-19-19v0c0-10.5,8.5-19,19-19l0,0c10.5,0,19,8.5,19,19v0
		C-745.5,10.5-754,19-764.5,19z"/>
	<path id="XMLID_1724_" class="st1" d="M-774.6,6.4c1.8,1.2,4,1.9,6.4,1.9c7.7,0,12.1-6.5,11.8-12.4c0.8-0.6,1.5-1.3,2.1-2.2
		c-0.7,0.3-1.5,0.6-2.4,0.7c0.9-0.5,1.5-1.3,1.8-2.3c-0.8,0.5-1.7,0.8-2.6,1c-0.8-0.8-1.8-1.3-3-1.3c-2.7,0-4.7,2.5-4.1,5.1
		c-3.5-0.2-6.5-1.8-8.6-4.3c-1.1,1.9-0.6,4.3,1.3,5.6c-0.7,0-1.3-0.2-1.9-0.5c0,1.9,1.3,3.7,3.3,4.1c-0.6,0.2-1.2,0.2-1.9,0.1
		c0.5,1.7,2.1,2.9,3.9,2.9C-770.2,6-772.4,6.6-774.6,6.4z"/>
</g>
<g id="XMLID_1716_">
	<path id="XMLID_1720_" class="st0" d="M-708.8,19L-708.8,19c-10.5,0-19-8.5-19-19v0c0-10.5,8.5-19,19-19l0,0c10.5,0,19,8.5,19,19v0
		C-689.7,10.5-698.2,19-708.8,19z"/>
	<g id="XMLID_1717_">
		<path id="XMLID_1719_" class="st1" d="M-706.4-0.5h-7.7l0,2.2h5.2c-0.6,2.7-2.5,4.3-5,4.3c-3.3,0-6-2.7-6-6c0-3.3,2.7-6,6-6
			c1.6,0,3,0.6,4.1,1.6l1.7-1.5c-1.5-1.5-3.5-2.4-5.8-2.4c-4.6,0-8.3,3.7-8.3,8.3c0,4.6,3.7,8.3,8.3,8.3c4.4,0,7.6-3.3,7.6-7.9
			L-706.4-0.5z"/>
		<polygon id="XMLID_1718_" class="st1" points="-695.3,-0.4 -698.5,-0.4 -698.5,-3.6 -700.5,-3.6 -700.5,-0.4 -703.7,-0.4 
			-703.7,1.6 -700.5,1.6 -700.5,4.8 -698.5,4.8 -698.5,1.6 -695.3,1.6 		"/>
	</g>
</g>
<g id="XMLID_1707_">
	<path id="XMLID_1713_" class="st0" d="M-708.8,73L-708.8,73c-10.5,0-19-8.5-19-19v0c0-10.5,8.5-19,19-19l0,0c10.5,0,19,8.5,19,19v0
		C-689.7,64.4-698.2,73-708.8,73z"/>
	<g id="XMLID_1708_">
		<g id="XMLID_1710_">
			<rect id="XMLID_1712_" x="-717.4" y="49.7" class="st1" width="3.9" height="12.7"/>
			<path id="XMLID_1711_" class="st1" d="M-715.4,48c1.3,0,2.3-1.1,2.3-2.3s-1-2.3-2.3-2.3c-1.3,0-2.3,1.1-2.3,2.3
				S-716.7,48-715.4,48z"/>
		</g>
		<path id="XMLID_1709_" class="st1" d="M-707.2,55.7c0-1.8,0.8-2.9,2.4-2.9c1.4,0,2.1,1,2.1,2.9c0,1.8,0,6.7,0,6.7h3.9
			c0,0,0-4.6,0-8.1c0-3.4-1.9-5.1-4.6-5.1c-2.7,0-3.8,2.1-3.8,2.1v-1.7h-3.8v12.7h3.8C-707.2,62.4-707.2,57.7-707.2,55.7z"/>
	</g>
</g>
<g id="XMLID_1698_">
	<path id="XMLID_1704_" class="st0" d="M-764.5,73L-764.5,73c-10.5,0-19-8.5-19-19v0c0-10.5,8.5-19,19-19l0,0c10.5,0,19,8.5,19,19v0
		C-745.5,64.4-754,73-764.5,73z"/>
	<path id="XMLID_1699_" class="st1" d="M-764.5,42.8c-6.1,0-11.1,5-11.1,11.1c0,6.1,5,11.1,11.1,11.1c6.1,0,11.1-5,11.1-11.1
		C-753.4,47.8-758.3,42.8-764.5,42.8z M-759.4,58.9c-0.2,0.3-0.6,0.4-0.9,0.2c-2.6-1.6-5.9-1.9-9.8-1.1c-0.4,0.1-0.7-0.2-0.8-0.5
		c-0.1-0.4,0.2-0.7,0.5-0.8c4.2-0.9,7.9-0.6,10.8,1.2C-759.3,58.1-759.2,58.5-759.4,58.9z M-758,55.8c-0.3,0.4-0.8,0.6-1.2,0.3
		c-3-1.8-7.6-2.4-11.1-1.3c-0.4,0.1-0.9-0.1-1.1-0.6c-0.1-0.4,0.1-0.9,0.6-1.1c4.1-1.2,9.1-0.6,12.5,1.5
		C-757.9,54.9-757.8,55.4-758,55.8z M-757.9,52.7c-3.6-2.1-9.5-2.3-12.9-1.3c-0.6,0.2-1.1-0.2-1.3-0.7c-0.2-0.6,0.2-1.1,0.7-1.3
		c3.9-1.2,10.5-0.9,14.6,1.5c0.5,0.3,0.7,0.9,0.4,1.4C-756.8,52.8-757.4,53-757.9,52.7z"/>
</g>
<g id="XMLID_1693_">
	<path id="XMLID_1695_" class="st0" d="M-653.7,19L-653.7,19c-10.5,0-19-8.5-19-19v0c0-10.5,8.5-19,19-19h0c10.5,0,19,8.5,19,19v0
		C-634.6,10.5-643.1,19-653.7,19z"/>
	<path id="XMLID_1694_" class="st1" d="M-656.6,11.5h4.6V-0.1h3.2l0.3-3.9h-3.6c0,0,0-1.5,0-2.2c0-0.9,0.2-1.3,1.1-1.3
		c0.7,0,2.5,0,2.5,0v-4c0,0-2.6,0-3.2,0c-3.4,0-5,1.5-5,4.4c0,2.5,0,3.1,0,3.1h-2.4V0h2.4V11.5z"/>
</g>
<g id="XMLID_1683_">
	<path id="XMLID_1692_" class="st0" d="M-597.9,19L-597.9,19c-10.5,0-19-8.5-19-19v0c0-10.5,8.5-19,19-19l0,0c10.5,0,19,8.5,19,19v0
		C-578.9,10.5-587.4,19-597.9,19z"/>
	<g id="XMLID_1684_">
		<path id="XMLID_1689_" class="st1" d="M-597.9-8.6c2.8,0,3.1,0,4.2,0.1c1,0,1.6,0.2,1.9,0.4c0.5,0.2,0.8,0.4,1.2,0.8
			c0.4,0.4,0.6,0.7,0.8,1.2c0.1,0.4,0.3,0.9,0.4,1.9c0.1,1.1,0.1,1.4,0.1,4.2s0,3.1-0.1,4.2c0,1-0.2,1.6-0.4,1.9
			c-0.2,0.5-0.4,0.8-0.8,1.2c-0.4,0.4-0.7,0.6-1.2,0.8c-0.4,0.1-0.9,0.3-1.9,0.4c-1.1,0.1-1.4,0.1-4.2,0.1c-2.8,0-3.1,0-4.2-0.1
			c-1,0-1.6-0.2-1.9-0.4c-0.5-0.2-0.8-0.4-1.2-0.8c-0.4-0.4-0.6-0.7-0.8-1.2c-0.1-0.4-0.3-0.9-0.4-1.9c-0.1-1.1-0.1-1.4-0.1-4.2
			s0-3.1,0.1-4.2c0-1,0.2-1.6,0.4-1.9c0.2-0.5,0.4-0.8,0.8-1.2c0.4-0.4,0.7-0.6,1.2-0.8c0.4-0.1,0.9-0.3,1.9-0.4
			C-601-8.5-600.7-8.6-597.9-8.6 M-597.9-10.4c-2.8,0-3.2,0-4.3,0.1c-1.1,0.1-1.9,0.2-2.5,0.5c-0.7,0.3-1.3,0.6-1.8,1.2
			c-0.6,0.6-0.9,1.2-1.2,1.8c-0.3,0.7-0.4,1.4-0.5,2.5c-0.1,1.1-0.1,1.5-0.1,4.3c0,2.8,0,3.2,0.1,4.3c0.1,1.1,0.2,1.9,0.5,2.5
			c0.3,0.7,0.6,1.3,1.2,1.8c0.6,0.6,1.2,0.9,1.8,1.2c0.7,0.3,1.4,0.4,2.5,0.5c1.1,0.1,1.5,0.1,4.3,0.1c2.8,0,3.2,0,4.3-0.1
			c1.1-0.1,1.9-0.2,2.5-0.5c0.7-0.3,1.3-0.6,1.8-1.2c0.6-0.6,0.9-1.2,1.2-1.8c0.3-0.7,0.4-1.4,0.5-2.5c0.1-1.1,0.1-1.5,0.1-4.3
			c0-2.8,0-3.2-0.1-4.3c-0.1-1.1-0.2-1.9-0.5-2.5c-0.3-0.7-0.6-1.3-1.2-1.8c-0.6-0.6-1.2-0.9-1.8-1.2c-0.7-0.3-1.4-0.4-2.5-0.5
			C-594.7-10.4-595.1-10.4-597.9-10.4"/>
		<path id="XMLID_1686_" class="st1" d="M-597.9-5.4c-3,0-5.4,2.4-5.4,5.4c0,3,2.4,5.4,5.4,5.4c3,0,5.4-2.4,5.4-5.4
			C-592.6-3-595-5.4-597.9-5.4 M-597.9,3.5c-1.9,0-3.5-1.6-3.5-3.5c0-1.9,1.6-3.5,3.5-3.5c1.9,0,3.5,1.6,3.5,3.5
			C-594.4,1.9-596,3.5-597.9,3.5"/>
		<path id="XMLID_1685_" class="st1" d="M-591.1-5.6c0,0.7-0.6,1.3-1.3,1.3c-0.7,0-1.3-0.6-1.3-1.3c0-0.7,0.6-1.3,1.3-1.3
			C-591.7-6.8-591.1-6.3-591.1-5.6"/>
	</g>
</g>
<g id="XMLID_1678_">
	<path id="XMLID_1680_" class="st0" d="M-597.9,73L-597.9,73c-10.5,0-19-8.5-19-19v0c0-10.5,8.5-19,19-19l0,0c10.5,0,19,8.5,19,19v0
		C-578.9,64.4-587.4,73-597.9,73z"/>
	<path id="XMLID_1679_" class="st1" d="M-604,55.7c0.3,0.1,0.6,0,0.7-0.3c0.1-0.2,0.2-0.8,0.3-1c0.1-0.3,0.1-0.4-0.2-0.7
		c-0.5-0.6-0.9-1.4-0.9-2.5c0-3.3,2.5-6.2,6.4-6.2c3.5,0,5.4,2.1,5.4,5c0,3.7-1.7,6.9-4.1,6.9c-1.4,0-2.4-1.1-2-2.5
		c0.4-1.6,1.1-3.4,1.1-4.6c0-1.1-0.6-1.9-1.8-1.9c-1.4,0-2.5,1.4-2.5,3.4c0,1.2,0.4,2.1,0.4,2.1s-1.4,6-1.7,7.1
		c-0.5,2.1-0.1,4.7,0,4.9c0,0.2,0.2,0.2,0.3,0.1c0.1-0.2,1.8-2.2,2.3-4.2c0.2-0.6,0.9-3.6,0.9-3.6c0.5,0.9,1.8,1.6,3.2,1.6
		c4.2,0,7-3.8,7-8.9c0-3.9-3.3-7.4-8.2-7.4c-6.2,0-9.3,4.4-9.3,8.1C-606.7,53-605.8,55-604,55.7z"/>
</g>
<g id="XMLID_752_">
	<path id="XMLID_1675_" class="st0" d="M-653.7,73L-653.7,73c-10.5,0-19-8.5-19-19v0c0-10.5,8.5-19,19-19h0c10.5,0,19,8.5,19,19v0
		C-634.6,64.4-643.1,73-653.7,73z"/>
	<g id="XMLID_753_">
		<path id="XMLID_761_" class="st1" d="M-656.5,60.2c0.6-0.1,1.1-0.3,1.5-0.7c0.4-0.3,0.7-0.6,0.9-1c0.4-0.6,0.6-1.3,0.6-2.1
			c0-0.8-0.2-1.4-0.5-2c-0.3-0.5-0.9-0.9-1.5-1.2c0.4-0.2,0.8-0.5,1-0.8c0.4-0.5,0.6-1.1,0.6-2c0-0.8-0.2-1.5-0.6-2
			c-0.7-0.9-1.8-1.4-3.5-1.4h-6.4v13.3h6C-657.7,60.4-657.1,60.4-656.5,60.2z M-661.7,49.4h2.9c0.6,0,1.2,0.1,1.6,0.2
			c0.5,0.2,0.7,0.6,0.7,1.2c0,0.6-0.2,1-0.5,1.2c-0.4,0.2-0.8,0.3-1.4,0.3h-3.2V49.4z M-661.7,58.1v-3.6h3.3c0.6,0,1,0.1,1.3,0.2
			c0.6,0.3,0.8,0.7,0.8,1.4c0,0.8-0.3,1.4-0.9,1.7c-0.3,0.2-0.8,0.2-1.3,0.2H-661.7z"/>
		<g id="XMLID_755_">
			<path id="XMLID_758_" class="st1" d="M-651.2,59.5c1,0.8,2.2,1.2,3.5,1.2c1.6,0,2.8-0.5,3.7-1.4c0.6-0.6,0.9-1.2,1-1.8h-2.6
				c-0.2,0.3-0.3,0.5-0.5,0.7c-0.4,0.3-0.8,0.5-1.4,0.5c-0.6,0-1-0.1-1.4-0.4c-0.6-0.4-1-1.1-1-2.1h7.2c0-0.9,0-1.5-0.1-2
				c-0.1-0.8-0.4-1.5-0.8-2c-0.4-0.7-1-1.2-1.7-1.5c-0.7-0.3-1.5-0.5-2.3-0.5c-1.4,0-2.6,0.5-3.5,1.4c-0.9,0.9-1.4,2.2-1.4,3.9
				C-652.7,57.4-652.2,58.7-651.2,59.5z M-649.4,53c0.4-0.4,0.9-0.6,1.5-0.6c0.6,0,1.1,0.2,1.5,0.5c0.4,0.4,0.6,0.9,0.7,1.6h-4.4
				C-649.9,53.9-649.7,53.4-649.4,53z"/>
			<rect id="XMLID_757_" x="-650.9" y="47.9" class="st1" width="5.8" height="1.3"/>
		</g>
	</g>
</g>
<g id="XMLID_747_">
	<path id="XMLID_749_" class="st0" d="M-597.6,126.9L-597.6,126.9c-10.5,0-19-8.5-19-19v0c0-10.5,8.5-19,19-19l0,0
		c10.5,0,19,8.5,19,19v0C-578.6,118.4-587.1,126.9-597.6,126.9z"/>
	<path id="XMLID_748_" class="st1" d="M-601.9,113.5c0,1,0.1,1.7,0.3,2.3c0.2,0.5,0.6,1,1.1,1.5c0.5,0.5,1.2,0.8,1.9,1.1
		c0.8,0.2,1.6,0.4,2.6,0.4c0.9,0,1.7-0.1,2.4-0.3c0.7-0.2,1.6-0.5,2.5-0.9v-3.4c-1.1,0.7-2.2,1.1-3.3,1.1c-0.6,0-1.2-0.1-1.6-0.4
		c-0.4-0.2-0.6-0.5-0.7-0.9c-0.1-0.4-0.2-1.2-0.2-2.4v-5.5h5.1v-3.4h-5.1v-5.5h-3.1c-0.1,1.1-0.4,2-0.8,2.7
		c-0.4,0.7-0.8,1.3-1.5,1.8c-0.6,0.5-1.3,0.9-2.2,1.2v3.1h2.4V113.5z"/>
</g>
<g id="XMLID_742_">
	<path id="XMLID_744_" class="st0" d="M-765.1,126.9L-765.1,126.9c-10.5,0-19-8.5-19-19v0c0-10.5,8.5-19,19-19h0
		c10.5,0,19,8.5,19,19v0C-746.1,118.4-754.6,126.9-765.1,126.9z"/>
	<path id="XMLID_743_" class="st3" d="M-754.1,113.4L-754.1,113.4C-754.1,113.4-754.1,113.4-754.1,113.4
		C-754.1,113.3-754.1,113.3-754.1,113.4L-754.1,113.4c-0.3-0.2-0.6-0.2-0.7-0.3c0,0,0,0,0,0c-1.2-0.4-2.2-1.2-2.9-2.1
		c-0.4-0.5-0.8-1.1-1-1.8c0,0,0,0,0,0c-0.1-0.3-0.1-0.6,0-0.8c0,0,0,0,0,0c0.2-0.3,0.6-0.5,1-0.6c0,0,0,0,0,0c0.5-0.2,1-0.3,1.4-0.7
		c0,0,0,0,0,0c0.1-0.1,0.1-0.1,0.2-0.3c0,0,0-0.1,0-0.1c0-0.1,0-0.2,0-0.4c0,0,0,0,0,0c-0.1-0.2-0.3-0.4-0.5-0.5h0
		c-0.3-0.1-0.6-0.2-0.8-0.1l0,0h0c-0.3,0.1-0.5,0.2-0.7,0.2c0,0,0,0,0,0c-0.3,0.1-0.6,0.1-0.8,0c0,0,0-0.1,0-0.2h0c0-0.5,0-1,0-1.5
		c0,0,0,0,0,0c0-0.8,0.1-1.6-0.1-2.5c0,0,0,0,0,0c-0.3-1.4-1.2-2.6-2.3-3.4c-0.8-0.6-1.8-0.9-2.8-1l0,0c-0.3,0-0.7,0-1,0
		c-1.4,0-2.8,0.4-3.9,1.2c-0.8,0.6-1.5,1.5-1.9,2.5v0c-0.4,1-0.4,2-0.3,3l0,0c0,0.7,0.1,1.3,0,2c0,0,0,0,0,0c-0.3,0.1-0.6,0-1,0h0
		c-0.2,0-0.5-0.1-0.7-0.2c0,0,0,0,0,0c-0.3-0.1-0.5,0-0.7,0.2c0,0,0,0,0,0c0,0,0,0,0,0c-0.2,0.1-0.4,0.3-0.4,0.6c0,0,0,0,0,0.1
		c0,0,0,0,0,0c0,0.2,0.1,0.3,0.2,0.4c0.1,0.1,0.2,0.1,0.3,0.2c0,0,0,0,0,0c0.5,0.3,1,0.5,1.5,0.7l0,0c0.3,0.1,0.6,0.4,0.7,0.7
		c0.1,0.4-0.1,0.8-0.3,1.2v0c-0.5,1.1-1.3,2-2.3,2.7c-0.5,0.4-1.1,0.6-1.7,0.8c0,0,0,0,0,0c-0.1,0-0.4,0.1-0.6,0.4c0,0,0,0,0,0.1
		c-0.1,0.2,0,0.4,0.1,0.5c0.1,0.1,0.2,0.2,0.3,0.2c0,0,0,0,0,0c0.5,0.3,1.1,0.4,1.6,0.5c0,0,0,0,0,0c0.4,0.1,0.7,0.1,1,0.2
		c0,0,0,0.1,0.1,0.3c0.1,0.3,0.1,0.6,0.2,1c0,0.1,0.1,0.2,0.2,0.2c0.2,0.1,0.4,0,0.4,0c0,0,0,0,0,0c0.8-0.1,1.7-0.3,2.5-0.1l0,0
		c0.8,0.2,1.5,0.8,2.3,1.3v0l0,0c0.5,0.3,1.1,0.7,1.9,0.7l0,0c0,0,0,0,0,0c0.5,0,1.1,0,1.6,0c0,0,0,0,0,0c0.4,0,0.9-0.2,1.2-0.4
		c0,0,0,0,0,0c0.8-0.5,1.6-1.1,2.4-1.4h0c0.3-0.1,0.6-0.1,1-0.1c0,0,0,0,0,0c0.7,0,1.4,0,2,0.1c0,0,0,0,0.1,0c0.1,0,0.2-0.1,0.2-0.1
		c0.1-0.1,0.1-0.1,0.1-0.1c0-0.1,0-0.1,0,0c0,0,0,0,0-0.1c0.1-0.4,0.2-0.8,0.4-1c0.1-0.1,0.2-0.1,0.4-0.1c0,0,0,0,0,0
		c0.6-0.1,1.1-0.3,1.6-0.5c0,0,0,0,0,0c0.2-0.1,0.5-0.2,0.7-0.4c0,0,0,0,0,0l0,0C-753.8,113.8-753.9,113.5-754.1,113.4L-754.1,113.4
		z"/>
</g>
<g id="XMLID_737_">
	<path id="XMLID_739_" class="st0" d="M-765.1,180.8L-765.1,180.8c-10.5,0-19-8.5-19-19v0c0-10.5,8.5-19,19-19h0
		c10.5,0,19,8.5,19,19v0C-746.1,172.3-754.6,180.8-765.1,180.8z"/>
	<path id="XMLID_738_" class="st1" d="M-757.5,152.4c-3-0.1-5,1.6-6.1,5.1c0.5-0.2,1.1-0.4,1.6-0.4c1.1,0,1.6,0.6,1.5,1.9
		c-0.1,0.7-0.5,1.8-1.5,3.3c-0.9,1.4-1.6,2.1-2,2.1c-0.6,0-1.1-1.1-1.6-3.3c-0.2-0.6-0.5-2.3-0.9-4.9c-0.4-2.5-1.4-3.6-3.1-3.4
		c-0.7,0.1-1.8,0.7-3.2,1.9c-1,0.9-2.1,1.9-3.2,2.8l1,1.3c1-0.7,1.5-1,1.7-1c0.7,0,1.4,1.2,2.1,3.5c0.6,2.1,1.2,4.3,1.7,6.4
		c0.9,2.3,1.9,3.5,3.2,3.5c2,0,4.5-1.9,7.4-5.7c2.8-3.7,4.3-6.5,4.4-8.6C-754.2,153.9-755.3,152.5-757.5,152.4z"/>
</g>
<g id="XMLID_723_">
	<path id="XMLID_734_" class="st0" d="M-597.6,180.8L-597.6,180.8c-10.5,0-19-8.5-19-19v0c0-10.5,8.5-19,19-19l0,0
		c10.5,0,19,8.5,19,19v0C-578.6,172.3-587.1,180.8-597.6,180.8z"/>
	<path id="XMLID_724_" class="st1" d="M-597.6,149.6c-6.7,0-12.1,5.4-12.1,12.1c0,6.7,5.4,12.1,12.1,12.1c6.7,0,12.1-5.4,12.1-12.1
		C-585.5,155.1-590.9,149.6-597.6,149.6z M-597.6,151.8c2.3,0,4.4,0.8,6.1,2.1c-1.2,1.6-2.9,2.8-5,3.7c-1-1.9-2.2-3.7-3.5-5.5
		C-599.3,151.9-598.4,151.8-597.6,151.8z M-602.1,152.8c1.3,1.8,2.5,3.6,3.6,5.4c-2.5,0.7-5.4,1.1-8.8,1.1
		C-606.6,156.5-604.7,154.2-602.1,152.8z M-607.6,161.8c0-0.1,0-0.2,0-0.3c3.9,0,7.2-0.5,10.1-1.3c0.2,0.5,0.5,1,0.7,1.4
		c-3.4,1.1-6.2,3.3-8.4,6.6C-606.7,166.4-607.6,164.2-607.6,161.8z M-597.6,171.8c-2.3,0-4.4-0.8-6.1-2.1c2-3.1,4.5-5.2,7.7-6.1
		c0.9,2.4,1.6,5,2.1,7.5C-595.1,171.6-596.3,171.8-597.6,171.8z M-592,170.1c-0.4-2.4-1.1-4.7-1.9-7c1.9-0.3,4-0.2,6.3,0.2
		C-588.1,166.1-589.7,168.6-592,170.1z M-594.8,161.1c-0.2-0.6-0.5-1.1-0.8-1.7c2.3-1,4.2-2.4,5.6-4.1c1.4,1.6,2.2,3.7,2.3,5.9
		C-590.2,160.8-592.6,160.8-594.8,161.1z"/>
</g>
<g id="XMLID_2143_">
	<path id="XMLID_2147_" class="st4" d="M-428.8,126.9L-428.8,126.9c-10.5,0-19-8.5-19-19v0c0-10.5,8.5-19,19-19h0
		c10.5,0,19,8.5,19,19v0C-409.8,118.4-418.3,126.9-428.8,126.9z"/>
	<path id="XMLID_2144_" class="st0" d="M-439.4,107.9c0,5.9,4.7,10.6,10.6,10.6c0.7,0,1.3-0.1,2-0.2c0.9,0.6,2,0.9,3.2,0.9
		c3.4,0,6.2-2.8,6.2-6.2c0-1.2-0.3-2.3-0.9-3.3c0.1-0.6,0.2-1.2,0.2-1.8c0-5.9-4.7-10.6-10.6-10.6c-0.7,0-1.3,0.1-2,0.2
		c-0.9-0.6-2-0.9-3.2-0.9c-3.4,0-6.2,2.8-6.2,6.2c0,1.2,0.3,2.3,0.9,3.2C-439.3,106.6-439.4,107.2-439.4,107.9z M-428.7,100.3
		c3.4,0.2,5.4,1.7,5.6,3.1c0.1,0.9-0.5,1.6-1.6,1.6c-1.5,0-1.7-2.1-4.4-2.1c-1.2,0-2.2,0.5-2.2,1.6c0,2.3,8.5,0.9,8.5,5.9
		c0,2.9-2.3,4.8-5.7,4.8c-3,0-6.1-1.4-6-3.7c0-0.7,0.5-1.4,1.2-1.4c1.8,0,1.8,2.6,4.6,2.6c2,0,2.7-1.1,2.7-1.8
		c0-2.7-8.6-1.1-8.6-6.2C-434.6,102-432.3,100.1-428.7,100.3z"/>
</g>
<g id="XMLID_2133_">
	<path id="XMLID_2140_" class="st4" d="M-428.8,180.8L-428.8,180.8c-10.5,0-19-8.5-19-19v0c0-10.5,8.5-19,19-19h0
		c10.5,0,19,8.5,19,19v0C-409.8,172.3-418.3,180.8-428.8,180.8z"/>
	<g id="XMLID_2134_" transform="translate(-1)">
		<path id="XMLID_2139_" class="st0" d="M-439.5,155.6l5.8,3.7l5.8-3.7l-5.8-3.7L-439.5,155.6z"/>
		<path id="XMLID_2138_" class="st0" d="M-427.8,155.6l5.8,3.7l5.8-3.7l-5.8-3.7L-427.8,155.6z"/>
		<path id="XMLID_2137_" class="st0" d="M-439.5,163l5.8,3.7l5.8-3.7l-5.8-3.7L-439.5,163z"/>
		<path id="XMLID_2136_" class="st0" d="M-422,159.3l-5.8,3.7l5.8,3.7l5.8-3.7L-422,159.3z"/>
		<path id="XMLID_2135_" class="st0" d="M-433.6,168l5.8,3.7l5.8-3.7l-5.8-3.7L-433.6,168z"/>
	</g>
</g>
<g id="XMLID_2124_">
	<path id="XMLID_2130_" class="st4" d="M-484.5,126.9L-484.5,126.9c-10.5,0-19-8.5-19-19v0c0-10.5,8.5-19,19-19l0,0
		c10.5,0,19,8.5,19,19v0C-465.5,118.4-474,126.9-484.5,126.9z"/>
	<g id="XMLID_2125_">
		<path id="XMLID_2127_" class="st5" d="M-474.1,107.3c-0.1-5.5-4.7-9.9-10.2-9.9c-5.5,0-10,4.3-10.2,9.7c0,0.1,0,0.3,0,0.4
			c0,1.9,0.5,3.7,1.5,5.3l-1.8,5.5l5.7-1.8c1.5,0.8,3.2,1.3,5,1.3c5.7,0,10.2-4.6,10.2-10.2C-474.1,107.5-474.1,107.4-474.1,107.3z
			 M-484.3,116.1c-1.8,0-3.4-0.5-4.7-1.4l-3.3,1.1l1.1-3.2c-1-1.4-1.6-3.1-1.6-5c0-0.3,0-0.6,0-0.8c0.4-4.3,4.1-7.7,8.6-7.7
			c4.5,0,8.2,3.5,8.6,7.9c0,0.2,0,0.4,0,0.7C-475.7,112.3-479.6,116.1-484.3,116.1z"/>
		<path id="XMLID_2126_" class="st5" d="M-479.6,109.6c-0.3-0.1-1.5-0.7-1.7-0.8c-0.2-0.1-0.4-0.1-0.6,0.1c-0.2,0.2-0.7,0.8-0.8,1
			c-0.1,0.2-0.3,0.2-0.5,0.1c-0.2-0.1-1.1-0.4-2-1.2c-0.7-0.7-1.3-1.5-1.4-1.7c-0.1-0.2,0-0.4,0.1-0.5c0.1-0.1,0.2-0.3,0.4-0.4
			c0,0,0.1-0.1,0.1-0.1c0.1-0.1,0.1-0.2,0.2-0.3c0.1-0.2,0-0.3,0-0.4c-0.1-0.1-0.6-1.4-0.8-1.9c-0.2-0.5-0.4-0.4-0.6-0.4
			c-0.1,0-0.3,0-0.5,0c-0.2,0-0.4,0.1-0.7,0.3c-0.2,0.2-0.9,0.9-0.9,2.1c0,0.3,0.1,0.6,0.1,0.8c0.3,0.9,0.8,1.6,0.9,1.7
			c0.1,0.2,1.7,2.8,4.3,3.8c2.6,1,2.6,0.7,3,0.6c0.5,0,1.5-0.6,1.7-1.2c0.2-0.6,0.2-1.1,0.1-1.2
			C-479.2,109.8-479.4,109.8-479.6,109.6z"/>
	</g>
</g>
<g id="XMLID_2116_">
	<path id="XMLID_2123_" class="st4" d="M-484.5,180.8L-484.5,180.8c-10.5,0-19-8.5-19-19v0c0-10.5,8.5-19,19-19l0,0
		c10.5,0,19,8.5,19,19v0C-465.5,172.3-474,180.8-484.5,180.8z"/>
	<g id="XMLID_2117_">
		<path id="XMLID_2121_" class="st0" d="M-469.9,154.4c-0.4-1.3-1.4-2.4-2.7-2.7c-2.4-0.6-11.9-0.6-11.9-0.6s-9.5,0-11.9,0.6
			c-1.3,0.4-2.3,1.4-2.7,2.7c-0.6,2.4-0.6,7.4-0.6,7.4s0,5,0.6,7.4c0.4,1.3,1.4,2.4,2.7,2.7c2.4,0.6,11.9,0.6,11.9,0.6
			s9.5,0,11.9-0.6c1.3-0.4,2.3-1.4,2.7-2.7c0.6-2.4,0.6-7.4,0.6-7.4S-469.3,156.8-469.9,154.4z"/>
		<polygon id="XMLID_2118_" class="st1" points="-487.7,166.3 -487.7,157.2 -479.7,161.8 		"/>
	</g>
</g>
<g id="XMLID_2111_">
	<path id="XMLID_2113_" class="st4" d="M-539.9,19L-539.9,19c-10.5,0-19-8.5-19-19v0c0-10.5,8.5-19,19-19l0,0c10.5,0,19,8.5,19,19v0
		C-520.9,10.5-529.4,19-539.9,19z"/>
	<path id="XMLID_2112_" class="st0" d="M-550.1,6.4c1.8,1.2,4,1.9,6.4,1.9c7.7,0,12.1-6.5,11.8-12.4c0.8-0.6,1.5-1.3,2.1-2.2
		c-0.7,0.3-1.5,0.6-2.4,0.7c0.9-0.5,1.5-1.3,1.8-2.3c-0.8,0.5-1.7,0.8-2.6,1c-0.8-0.8-1.8-1.3-3-1.3c-2.7,0-4.7,2.5-4.1,5.1
		c-3.5-0.2-6.5-1.8-8.6-4.3c-1.1,1.9-0.6,4.3,1.3,5.6c-0.7,0-1.3-0.2-1.9-0.5c0,1.9,1.3,3.7,3.3,4.1c-0.6,0.2-1.2,0.2-1.9,0.1
		c0.5,1.7,2.1,2.9,3.9,2.9C-545.7,6-547.9,6.6-550.1,6.4z"/>
</g>
<g id="XMLID_2104_">
	<path id="XMLID_2108_" class="st4" d="M-484.2,19L-484.2,19c-10.5,0-19-8.5-19-19v0c0-10.5,8.5-19,19-19h0c10.5,0,19,8.5,19,19v0
		C-465.2,10.5-473.7,19-484.2,19z"/>
	<g id="XMLID_2105_">
		<path id="XMLID_2107_" class="st0" d="M-481.8-0.5h-7.7l0,2.2h5.2c-0.6,2.7-2.5,4.3-5,4.3c-3.3,0-6-2.7-6-6c0-3.3,2.7-6,6-6
			c1.6,0,3,0.6,4.1,1.6l1.7-1.5c-1.5-1.5-3.5-2.4-5.8-2.4c-4.6,0-8.3,3.7-8.3,8.3c0,4.6,3.7,8.3,8.3,8.3c4.4,0,7.6-3.3,7.6-7.9
			L-481.8-0.5z"/>
		<polygon id="XMLID_2106_" class="st0" points="-470.8,-0.4 -473.9,-0.4 -473.9,-3.6 -476,-3.6 -476,-0.4 -479.1,-0.4 -479.1,1.6 
			-476,1.6 -476,4.8 -473.9,4.8 -473.9,1.6 -470.8,1.6 		"/>
	</g>
</g>
<g id="XMLID_2094_">
	<path id="XMLID_2101_" class="st4" d="M-484.2,73L-484.2,73c-10.5,0-19-8.5-19-19v0c0-10.5,8.5-19,19-19h0c10.5,0,19,8.5,19,19v0
		C-465.2,64.4-473.7,73-484.2,73z"/>
	<g id="XMLID_2095_">
		<g id="XMLID_2097_">
			<rect id="XMLID_2100_" x="-492.8" y="49.7" class="st0" width="3.9" height="12.7"/>
			<path id="XMLID_2098_" class="st0" d="M-490.9,48c1.3,0,2.3-1.1,2.3-2.3s-1-2.3-2.3-2.3c-1.3,0-2.3,1.1-2.3,2.3
				S-492.2,48-490.9,48z"/>
		</g>
		<path id="XMLID_2096_" class="st0" d="M-482.6,55.7c0-1.8,0.8-2.9,2.4-2.9c1.4,0,2.1,1,2.1,2.9c0,1.8,0,6.7,0,6.7h3.9
			c0,0,0-4.6,0-8.1c0-3.4-1.9-5.1-4.6-5.1c-2.7,0-3.8,2.1-3.8,2.1v-1.7h-3.8v12.7h3.8C-482.6,62.4-482.6,57.7-482.6,55.7z"/>
	</g>
</g>
<g id="XMLID_2085_">
	<path id="XMLID_2091_" class="st4" d="M-539.9,73L-539.9,73c-10.5,0-19-8.5-19-19v0c0-10.5,8.5-19,19-19l0,0c10.5,0,19,8.5,19,19v0
		C-520.9,64.4-529.4,73-539.9,73z"/>
	<path id="XMLID_2086_" class="st0" d="M-539.9,42.8c-6.1,0-11.1,5-11.1,11.1c0,6.1,5,11.1,11.1,11.1c6.1,0,11.1-5,11.1-11.1
		C-528.8,47.8-533.8,42.8-539.9,42.8z M-534.8,58.9c-0.2,0.3-0.6,0.4-0.9,0.2c-2.6-1.6-5.9-1.9-9.8-1.1c-0.4,0.1-0.7-0.2-0.8-0.5
		c-0.1-0.4,0.2-0.7,0.5-0.8c4.2-0.9,7.9-0.6,10.8,1.2C-534.7,58.1-534.6,58.5-534.8,58.9z M-533.5,55.8c-0.3,0.4-0.8,0.6-1.2,0.3
		c-3-1.8-7.6-2.4-11.1-1.3c-0.4,0.1-0.9-0.1-1.1-0.6c-0.1-0.4,0.1-0.9,0.6-1.1c4.1-1.2,9.1-0.6,12.5,1.5
		C-533.4,54.9-533.2,55.4-533.5,55.8z M-533.4,52.7c-3.6-2.1-9.5-2.3-12.9-1.3c-0.6,0.2-1.1-0.2-1.3-0.7c-0.2-0.6,0.2-1.1,0.7-1.3
		c3.9-1.2,10.5-0.9,14.6,1.5c0.5,0.3,0.7,0.9,0.4,1.4C-532.2,52.8-532.9,53-533.4,52.7z"/>
</g>
<g id="XMLID_2080_">
	<path id="XMLID_2082_" class="st4" d="M-429.1,19L-429.1,19c-10.5,0-19-8.5-19-19v0c0-10.5,8.5-19,19-19h0c10.5,0,19,8.5,19,19v0
		C-410.1,10.5-418.6,19-429.1,19z"/>
	<path id="XMLID_2081_" class="st0" d="M-432,11.5h4.6V-0.1h3.2l0.3-3.9h-3.6c0,0,0-1.5,0-2.2c0-0.9,0.2-1.3,1.1-1.3
		c0.7,0,2.5,0,2.5,0v-4c0,0-2.6,0-3.2,0c-3.4,0-5,1.5-5,4.4c0,2.5,0,3.1,0,3.1h-2.4V0h2.4V11.5z"/>
</g>
<g id="XMLID_2023_">
	<path id="XMLID_2079_" class="st4" d="M-373.4,19L-373.4,19c-10.5,0-19-8.5-19-19v0c0-10.5,8.5-19,19-19l0,0c10.5,0,19,8.5,19,19v0
		C-354.3,10.5-362.8,19-373.4,19z"/>
	<g id="XMLID_2024_">
		<path id="XMLID_2076_" class="st0" d="M-373.4-8.6c2.8,0,3.1,0,4.2,0.1c1,0,1.6,0.2,1.9,0.4c0.5,0.2,0.8,0.4,1.2,0.8
			c0.4,0.4,0.6,0.7,0.8,1.2c0.1,0.4,0.3,0.9,0.4,1.9c0,1.1,0.1,1.4,0.1,4.2s0,3.1-0.1,4.2c0,1-0.2,1.6-0.4,1.9
			c-0.2,0.5-0.4,0.8-0.8,1.2c-0.4,0.4-0.7,0.6-1.2,0.8c-0.4,0.1-0.9,0.3-1.9,0.4c-1.1,0.1-1.4,0.1-4.2,0.1c-2.8,0-3.1,0-4.2-0.1
			c-1,0-1.6-0.2-1.9-0.4c-0.5-0.2-0.8-0.4-1.2-0.8c-0.4-0.4-0.6-0.7-0.8-1.2c-0.1-0.4-0.3-0.9-0.4-1.9c-0.1-1.1-0.1-1.4-0.1-4.2
			s0-3.1,0.1-4.2c0-1,0.2-1.6,0.4-1.9c0.2-0.5,0.4-0.8,0.8-1.2c0.4-0.4,0.7-0.6,1.2-0.8c0.4-0.1,0.9-0.3,1.9-0.4
			C-376.5-8.5-376.1-8.6-373.4-8.6 M-373.4-10.4c-2.8,0-3.2,0-4.3,0.1c-1.1,0.1-1.9,0.2-2.5,0.5c-0.7,0.3-1.3,0.6-1.8,1.2
			c-0.6,0.6-0.9,1.2-1.2,1.8c-0.3,0.7-0.4,1.4-0.5,2.5c-0.1,1.1-0.1,1.5-0.1,4.3c0,2.8,0,3.2,0.1,4.3c0.1,1.1,0.2,1.9,0.5,2.5
			c0.3,0.7,0.6,1.3,1.2,1.8c0.6,0.6,1.2,0.9,1.8,1.2c0.7,0.3,1.4,0.4,2.5,0.5c1.1,0.1,1.5,0.1,4.3,0.1c2.8,0,3.2,0,4.3-0.1
			c1.1-0.1,1.9-0.2,2.5-0.5c0.7-0.3,1.3-0.6,1.8-1.2c0.6-0.6,0.9-1.2,1.2-1.8c0.3-0.7,0.4-1.4,0.5-2.5c0.1-1.1,0.1-1.5,0.1-4.3
			c0-2.8,0-3.2-0.1-4.3c-0.1-1.1-0.2-1.9-0.5-2.5c-0.3-0.7-0.6-1.3-1.2-1.8s-1.2-0.9-1.8-1.2c-0.7-0.3-1.4-0.4-2.5-0.5
			C-370.2-10.4-370.5-10.4-373.4-10.4"/>
		<path id="XMLID_2073_" class="st0" d="M-373.4-5.4c-3,0-5.4,2.4-5.4,5.4c0,3,2.4,5.4,5.4,5.4c3,0,5.4-2.4,5.4-5.4
			C-368-3-370.4-5.4-373.4-5.4 M-373.4,3.5c-1.9,0-3.5-1.6-3.5-3.5c0-1.9,1.6-3.5,3.5-3.5c1.9,0,3.5,1.6,3.5,3.5
			C-369.9,1.9-371.4,3.5-373.4,3.5"/>
		<path id="XMLID_2025_" class="st0" d="M-366.5-5.6c0,0.7-0.6,1.3-1.3,1.3c-0.7,0-1.3-0.6-1.3-1.3c0-0.7,0.6-1.3,1.3-1.3
			C-367.1-6.8-366.5-6.3-366.5-5.6"/>
	</g>
</g>
<g id="XMLID_2010_">
	<path id="XMLID_2012_" class="st4" d="M-373.4,73L-373.4,73c-10.5,0-19-8.5-19-19v0c0-10.5,8.5-19,19-19l0,0c10.5,0,19,8.5,19,19v0
		C-354.3,64.4-362.8,73-373.4,73z"/>
	<path id="XMLID_2011_" class="st0" d="M-379.4,55.7c0.3,0.1,0.6,0,0.7-0.3c0.1-0.2,0.2-0.8,0.3-1c0.1-0.3,0.1-0.4-0.2-0.7
		c-0.5-0.6-0.9-1.4-0.9-2.5c0-3.3,2.5-6.2,6.4-6.2c3.5,0,5.4,2.1,5.4,5c0,3.7-1.7,6.9-4.1,6.9c-1.4,0-2.4-1.1-2-2.5
		c0.4-1.6,1.1-3.4,1.1-4.6c0-1.1-0.6-1.9-1.8-1.9c-1.4,0-2.5,1.4-2.5,3.4c0,1.2,0.4,2.1,0.4,2.1s-1.4,6-1.7,7.1
		c-0.5,2.1-0.1,4.7,0,4.9c0,0.2,0.2,0.2,0.3,0.1c0.1-0.2,1.8-2.2,2.3-4.2c0.2-0.6,0.9-3.6,0.9-3.6c0.5,0.9,1.8,1.6,3.2,1.6
		c4.2,0,7-3.8,7-8.9c0-3.9-3.3-7.4-8.2-7.4c-6.2,0-9.3,4.4-9.3,8.1C-382.1,53-381.3,55-379.4,55.7z"/>
</g>
<g id="XMLID_1996_">
	<path id="XMLID_2007_" class="st4" d="M-429.1,73L-429.1,73c-10.5,0-19-8.5-19-19v0c0-10.5,8.5-19,19-19h0c10.5,0,19,8.5,19,19v0
		C-410.1,64.4-418.6,73-429.1,73z"/>
	<g id="XMLID_1997_">
		<path id="XMLID_2003_" class="st0" d="M-431.9,60.2c0.6-0.1,1.1-0.3,1.5-0.7c0.4-0.3,0.7-0.6,0.9-1c0.4-0.6,0.6-1.3,0.6-2.1
			c0-0.8-0.2-1.4-0.5-2c-0.3-0.5-0.9-0.9-1.5-1.2c0.4-0.2,0.8-0.5,1-0.8c0.4-0.5,0.6-1.1,0.6-2c0-0.8-0.2-1.5-0.6-2
			c-0.7-0.9-1.8-1.4-3.5-1.4h-6.4v13.3h6C-433.1,60.4-432.5,60.4-431.9,60.2z M-437.2,49.4h2.9c0.6,0,1.2,0.1,1.6,0.2
			c0.5,0.2,0.7,0.6,0.7,1.2c0,0.6-0.2,1-0.5,1.2c-0.4,0.2-0.8,0.3-1.4,0.3h-3.2V49.4z M-437.2,58.1v-3.6h3.3c0.6,0,1,0.1,1.3,0.2
			c0.6,0.3,0.8,0.7,0.8,1.4c0,0.8-0.3,1.4-0.9,1.7c-0.3,0.2-0.8,0.2-1.3,0.2H-437.2z"/>
		<g id="XMLID_1998_">
			<path id="XMLID_2000_" class="st0" d="M-426.6,59.5c1,0.8,2.2,1.2,3.5,1.2c1.6,0,2.8-0.5,3.7-1.4c0.6-0.6,0.9-1.2,1-1.8h-2.6
				c-0.2,0.3-0.3,0.5-0.5,0.7c-0.4,0.3-0.8,0.5-1.4,0.5c-0.6,0-1-0.1-1.4-0.4c-0.6-0.4-1-1.1-1-2.1h7.2c0-0.9,0-1.5-0.1-2
				c-0.1-0.8-0.4-1.5-0.8-2c-0.4-0.7-1-1.2-1.7-1.5c-0.7-0.3-1.5-0.5-2.3-0.5c-1.4,0-2.6,0.5-3.5,1.4c-0.9,0.9-1.4,2.2-1.4,3.9
				C-428.1,57.4-427.6,58.7-426.6,59.5z M-424.8,53c0.4-0.4,0.9-0.6,1.5-0.6c0.6,0,1.1,0.2,1.5,0.5c0.4,0.4,0.6,0.9,0.7,1.6h-4.4
				C-425.4,53.9-425.2,53.4-424.8,53z"/>
			<rect id="XMLID_1999_" x="-426.3" y="47.9" class="st0" width="5.8" height="1.3"/>
		</g>
	</g>
</g>
<g id="XMLID_1991_">
	<path id="XMLID_1993_" class="st4" d="M-373,126.9L-373,126.9c-10.5,0-19-8.5-19-19v0c0-10.5,8.5-19,19-19h0c10.5,0,19,8.5,19,19v0
		C-354,118.4-362.5,126.9-373,126.9z"/>
	<path id="XMLID_1992_" class="st0" d="M-377.3,113.5c0,1,0.1,1.7,0.3,2.3c0.2,0.5,0.6,1,1.1,1.5c0.5,0.5,1.2,0.8,1.9,1.1
		c0.8,0.2,1.6,0.4,2.6,0.4c0.9,0,1.7-0.1,2.4-0.3c0.7-0.2,1.6-0.5,2.5-0.9v-3.4c-1.1,0.7-2.2,1.1-3.3,1.1c-0.6,0-1.2-0.1-1.6-0.4
		c-0.4-0.2-0.6-0.5-0.7-0.9c-0.1-0.4-0.2-1.2-0.2-2.4v-5.5h5.1v-3.4h-5.1v-5.5h-3.1c-0.1,1.1-0.4,2-0.8,2.7
		c-0.4,0.7-0.8,1.3-1.5,1.8c-0.6,0.5-1.3,0.9-2.2,1.2v3.1h2.4V113.5z"/>
</g>
<g id="XMLID_1981_">
	<path id="XMLID_1988_" class="st4" d="M-540.6,126.9L-540.6,126.9c-10.5,0-19-8.5-19-19v0c0-10.5,8.5-19,19-19l0,0
		c10.5,0,19,8.5,19,19v0C-521.5,118.4-530.1,126.9-540.6,126.9z"/>
	<path id="XMLID_1987_" class="st5" d="M-529.5,113.4L-529.5,113.4C-529.5,113.4-529.5,113.4-529.5,113.4
		C-529.6,113.3-529.6,113.3-529.5,113.4L-529.5,113.4c-0.3-0.2-0.6-0.2-0.7-0.3c0,0,0,0,0,0c-1.2-0.4-2.2-1.2-2.9-2.1
		c-0.4-0.5-0.8-1.1-1-1.8c0,0,0,0,0,0c-0.1-0.3-0.1-0.6,0-0.8c0,0,0,0,0,0c0.2-0.3,0.6-0.5,1-0.6c0,0,0,0,0,0c0.5-0.2,1-0.3,1.4-0.7
		c0,0,0,0,0,0c0.1-0.1,0.1-0.1,0.2-0.3c0,0,0-0.1,0-0.1c0-0.1,0-0.2,0-0.4c0,0,0,0,0,0c-0.1-0.2-0.3-0.4-0.5-0.5h0
		c-0.3-0.1-0.6-0.2-0.8-0.1l0,0h0c-0.3,0.1-0.5,0.2-0.7,0.2c0,0,0,0,0,0c-0.3,0.1-0.6,0.1-0.8,0c0,0,0-0.1,0-0.2h0c0-0.5,0-1,0-1.5
		c0,0,0,0,0,0c0-0.8,0.1-1.6-0.1-2.5c0,0,0,0,0,0c-0.3-1.4-1.2-2.6-2.3-3.4c-0.8-0.6-1.8-0.9-2.8-1l0,0c-0.3,0-0.7,0-1,0
		c-1.4,0-2.8,0.4-3.9,1.2c-0.8,0.6-1.5,1.5-1.9,2.5v0c-0.4,1-0.4,2-0.3,3l0,0c0,0.7,0.1,1.3,0,2c0,0,0,0,0,0c-0.3,0.1-0.6,0-1,0h0
		c-0.2,0-0.5-0.1-0.7-0.2c0,0,0,0,0,0c-0.3-0.1-0.5,0-0.7,0.2c0,0,0,0,0,0c0,0,0,0,0,0c-0.2,0.1-0.4,0.3-0.4,0.6c0,0,0,0,0,0.1
		c0,0,0,0,0,0c0,0.2,0.1,0.3,0.2,0.4c0.1,0.1,0.2,0.1,0.3,0.2c0,0,0,0,0,0c0.5,0.3,1,0.5,1.5,0.7l0,0c0.3,0.1,0.6,0.4,0.7,0.7
		c0.1,0.4-0.1,0.8-0.3,1.2v0c-0.5,1.1-1.3,2-2.3,2.7c-0.5,0.4-1.1,0.6-1.7,0.8c0,0,0,0,0,0c-0.1,0-0.4,0.1-0.6,0.4c0,0,0,0,0,0.1
		c-0.1,0.2,0,0.4,0.1,0.5c0.1,0.1,0.2,0.2,0.3,0.2c0,0,0,0,0,0c0.5,0.3,1.1,0.4,1.6,0.5c0,0,0,0,0,0c0.4,0.1,0.7,0.1,1,0.2
		c0,0,0,0.1,0.1,0.3c0.1,0.3,0.1,0.6,0.2,1c0,0.1,0.1,0.2,0.2,0.2c0.2,0.1,0.4,0,0.4,0c0,0,0,0,0,0c0.8-0.1,1.7-0.3,2.5-0.1l0,0
		c0.8,0.2,1.5,0.8,2.3,1.3v0l0,0c0.5,0.3,1.1,0.7,1.9,0.7l0,0c0,0,0,0,0,0c0.5,0,1.1,0,1.6,0c0,0,0,0,0,0c0.4,0,0.9-0.2,1.2-0.4
		c0,0,0,0,0,0c0.8-0.5,1.6-1.1,2.4-1.4h0c0.3-0.1,0.6-0.1,1-0.1c0,0,0,0,0,0c0.7,0,1.4,0,2,0.1c0,0,0,0,0.1,0c0.1,0,0.2-0.1,0.2-0.1
		c0.1-0.1,0.1-0.1,0.1-0.1c0-0.1,0-0.1,0,0c0,0,0,0,0-0.1c0.1-0.4,0.2-0.8,0.4-1c0.1-0.1,0.2-0.1,0.4-0.1c0,0,0,0,0,0
		c0.6-0.1,1.1-0.3,1.6-0.5c0,0,0,0,0,0c0.2-0.1,0.5-0.2,0.7-0.4c0,0,0,0,0,0l0,0C-529.2,113.8-529.3,113.5-529.5,113.4L-529.5,113.4
		z"/>
</g>
<g id="XMLID_823_">
	<path id="XMLID_832_" class="st4" d="M-540.6,180.8L-540.6,180.8c-10.5,0-19-8.5-19-19v0c0-10.5,8.5-19,19-19l0,0
		c10.5,0,19,8.5,19,19v0C-521.5,172.3-530.1,180.8-540.6,180.8z"/>
	<path id="XMLID_831_" class="st0" d="M-532.9,152.4c-3-0.1-5,1.6-6.1,5.1c0.5-0.2,1.1-0.4,1.6-0.4c1.1,0,1.6,0.6,1.5,1.9
		c-0.1,0.7-0.5,1.8-1.5,3.3c-0.9,1.4-1.6,2.1-2,2.1c-0.6,0-1.1-1.1-1.6-3.3c-0.2-0.6-0.5-2.3-0.9-4.9c-0.4-2.5-1.4-3.6-3.1-3.4
		c-0.7,0.1-1.8,0.7-3.2,1.9c-1,0.9-2.1,1.9-3.2,2.8l1,1.3c1-0.7,1.5-1,1.7-1c0.7,0,1.4,1.2,2.1,3.5c0.6,2.1,1.2,4.3,1.7,6.4
		c0.9,2.3,1.9,3.5,3.2,3.5c2,0,4.5-1.9,7.4-5.7c2.8-3.7,4.3-6.5,4.4-8.6C-529.7,153.9-530.7,152.5-532.9,152.4z"/>
</g>
<g id="XMLID_736_">
	<path id="XMLID_815_" class="st4" d="M-373,180.8L-373,180.8c-10.5,0-19-8.5-19-19v0c0-10.5,8.5-19,19-19h0c10.5,0,19,8.5,19,19v0
		C-354,172.3-362.5,180.8-373,180.8z"/>
	<path id="XMLID_740_" class="st0" d="M-373,149.6c-6.7,0-12.1,5.4-12.1,12.1c0,6.7,5.4,12.1,12.1,12.1c6.7,0,12.1-5.4,12.1-12.1
		C-360.9,155.1-366.3,149.6-373,149.6z M-373,151.8c2.3,0,4.4,0.8,6.1,2.1c-1.2,1.6-2.9,2.8-5,3.7c-1-1.9-2.2-3.7-3.5-5.5
		C-374.7,151.9-373.9,151.8-373,151.8z M-377.5,152.8c1.3,1.8,2.5,3.6,3.6,5.4c-2.5,0.7-5.4,1.1-8.8,1.1
		C-382,156.5-380.1,154.2-377.5,152.8z M-383,161.8c0-0.1,0-0.2,0-0.3c3.9,0,7.2-0.5,10.1-1.3c0.2,0.5,0.5,1,0.7,1.4
		c-3.4,1.1-6.2,3.3-8.4,6.6C-382.2,166.4-383,164.2-383,161.8z M-373,171.8c-2.3,0-4.4-0.8-6.1-2.1c2-3.1,4.5-5.2,7.7-6.1
		c0.9,2.4,1.6,5,2.1,7.5C-370.5,171.6-371.8,171.8-373,171.8z M-367.5,170.1c-0.4-2.4-1.1-4.7-1.9-7c1.9-0.3,4-0.2,6.3,0.2
		C-363.6,166.1-365.2,168.6-367.5,170.1z M-370.2,161.1c-0.2-0.6-0.5-1.1-0.8-1.7c2.3-1,4.2-2.4,5.6-4.1c1.4,1.6,2.2,3.7,2.3,5.9
		C-365.6,160.8-368,160.8-370.2,161.1z"/>
</g>
<g id="XMLID_2407_">
	<path id="XMLID_2408_" class="st0" d="M69.7,447.6c16.2,10.4,35.5,16.5,56.2,16.5c68,0,106.5-57.5,104.2-109
		c7.2-5.2,13.4-11.6,18.3-19c-6.6,2.9-13.6,4.9-21,5.8c7.6-4.5,13.4-11.7,16.1-20.3c-7.1,4.2-14.9,7.3-23.3,8.9
		c-6.7-7.1-16.2-11.6-26.8-11.6c-23.7,0-41,22.1-35.7,45c-30.5-1.5-57.5-16.1-75.5-38.3c-9.6,16.5-5,38,11.3,48.9
		c-6-0.2-11.7-1.8-16.6-4.6c-0.4,17,11.8,32.9,29.4,36.4c-5.2,1.4-10.8,1.7-16.5,0.6c4.7,14.6,18.2,25.2,34.2,25.5
		C108.6,444.5,89.1,449.9,69.7,447.6z"/>
</g>
<g id="XMLID_2402_">
	<path id="XMLID_2403_" class="st0" d="M235.4-35.4h32.2v-80.5H290l2.4-27h-24.8c0,0,0-10.1,0-15.4c0-6.4,1.3-8.9,7.4-8.9
		c4.9,0,17.4,0,17.4,0v-28c0,0-18.3,0-22.3,0c-23.9,0-34.7,10.5-34.7,30.7c0,17.6,0,21.5,0,21.5h-16.7v27.3h16.7V-35.4z"/>
</g>
<g id="XMLID_2392_">
	<g id="XMLID_2393_">
		<path id="XMLID_2398_" class="st0" d="M491.5,220.5c22.8,0,25.5,0.1,34.5,0.5c8.3,0.4,12.8,1.8,15.8,2.9c4,1.5,6.8,3.4,9.8,6.4
			c3,3,4.8,5.8,6.4,9.8c1.2,3,2.6,7.5,2.9,15.8c0.4,9,0.5,11.7,0.5,34.5c0,22.8-0.1,25.5-0.5,34.5c-0.4,8.3-1.8,12.8-2.9,15.8
			c-1.5,4-3.4,6.8-6.4,9.8c-3,3-5.8,4.8-9.8,6.4c-3,1.2-7.5,2.6-15.8,2.9c-9,0.4-11.7,0.5-34.5,0.5c-22.8,0-25.5-0.1-34.5-0.5
			c-8.3-0.4-12.8-1.8-15.8-2.9c-4-1.5-6.8-3.4-9.8-6.4c-3-3-4.8-5.8-6.4-9.8c-1.2-3-2.6-7.5-2.9-15.8c-0.4-9-0.5-11.7-0.5-34.5
			c0-22.8,0.1-25.5,0.5-34.5c0.4-8.3,1.8-12.8,2.9-15.8c1.5-4,3.4-6.8,6.4-9.8c3-3,5.8-4.8,9.8-6.4c3-1.2,7.5-2.6,15.8-2.9
			C466,220.6,468.7,220.5,491.5,220.5 M491.5,205.1c-23.2,0-26.1,0.1-35.2,0.5c-9.1,0.4-15.3,1.9-20.7,4c-5.6,2.2-10.4,5.1-15.1,9.8
			c-4.7,4.7-7.7,9.5-9.8,15.1c-2.1,5.4-3.6,11.6-4,20.7c-0.4,9.1-0.5,12-0.5,35.2c0,23.2,0.1,26.1,0.5,35.2c0.4,9.1,1.9,15.3,4,20.7
			c2.2,5.6,5.1,10.4,9.8,15.1c4.7,4.7,9.5,7.7,15.1,9.8c5.4,2.1,11.6,3.6,20.7,4c9.1,0.4,12,0.5,35.2,0.5c23.2,0,26.1-0.1,35.2-0.5
			c9.1-0.4,15.3-1.9,20.7-4c5.6-2.2,10.4-5.1,15.1-9.8c4.7-4.7,7.7-9.5,9.8-15.1c2.1-5.4,3.6-11.6,4-20.7c0.4-9.1,0.5-12,0.5-35.2
			c0-23.2-0.1-26.1-0.5-35.2c-0.4-9.1-1.9-15.3-4-20.7c-2.2-5.6-5.1-10.4-9.8-15.1c-4.7-4.7-9.5-7.7-15.1-9.8
			c-5.4-2.1-11.6-3.6-20.7-4C517.5,205.2,514.6,205.1,491.5,205.1"/>
		<path id="XMLID_2395_" class="st0" d="M491.5,246.6c-24.2,0-43.8,19.6-43.8,43.8c0,24.2,19.6,43.8,43.8,43.8
			c24.2,0,43.8-19.6,43.8-43.8C535.3,266.3,515.7,246.6,491.5,246.6 M491.5,318.9c-15.7,0-28.4-12.7-28.4-28.4
			c0-15.7,12.7-28.4,28.4-28.4c15.7,0,28.4,12.7,28.4,28.4C519.9,306.2,507.2,318.9,491.5,318.9"/>
		<path id="XMLID_2394_" class="st0" d="M547.3,244.9c0,5.7-4.6,10.2-10.2,10.2c-5.7,0-10.2-4.6-10.2-10.2s4.6-10.2,10.2-10.2
			C542.7,234.7,547.3,239.3,547.3,244.9"/>
	</g>
</g>
<g id="XMLID_2385_">
	<g id="XMLID_2386_">
		<path id="XMLID_2388_" class="st0" d="M108.8,83.7H58.1l0.1,14.5h34.2c-4,17.7-16.5,28.5-33.3,28.5c-22,0-39.8-17.8-39.8-39.8
			s17.8-39.8,39.8-39.8c10.4,0,19.9,4,27,10.6l11.2-9.7C87.5,38.4,74,32.4,59.1,32.4C29,32.4,4.6,56.8,4.6,87s24.4,54.5,54.5,54.5
			c28.9,0,49.8-22.1,49.8-52.2L108.8,83.7z"/>
		<polygon id="XMLID_2387_" class="st0" points="181.7,84.3 160.8,84.3 160.8,63.4 147.4,63.4 147.4,84.3 126.5,84.3 126.5,97.6 
			147.4,97.6 147.4,118.6 160.8,118.6 160.8,97.6 181.7,97.6 		"/>
	</g>
</g>
<g id="XMLID_2345_">
	<path id="XMLID_2346_" class="st0" d="M-431.8,226.2c0,1.2,0.1,2.2,0.4,2.8c0.3,0.6,0.7,1.3,1.4,1.8c0.7,0.6,1.5,1,2.4,1.3
		c0.9,0.3,2,0.5,3.3,0.5c1.1,0,2.1-0.1,3-0.3c0.9-0.2,2-0.6,3.1-1.1V227c-1.3,0.9-2.7,1.3-4.1,1.3c-0.8,0-1.4-0.2-2-0.5
		c-0.4-0.3-0.8-0.6-0.9-1.1c-0.2-0.4-0.2-1.4-0.2-3v-6.9h6.4v-4.2h-6.4v-6.8h-3.8c-0.2,1.4-0.5,2.5-0.9,3.4
		c-0.5,0.9-1.1,1.7-1.8,2.3c-0.8,0.6-1.7,1.1-2.7,1.5v3.8h2.9V226.2z"/>
</g>
<g id="XMLID_2340_">
	<path id="XMLID_2341_" class="st5" d="M-471.3,226.1L-471.3,226.1C-471.3,226.1-471.3,226.1-471.3,226.1
		C-471.3,226.1-471.3,226.1-471.3,226.1L-471.3,226.1c-0.4-0.2-0.7-0.3-0.9-0.3c0,0,0,0,0,0c-1.5-0.5-2.7-1.5-3.7-2.7
		c-0.5-0.7-1-1.4-1.3-2.2c0,0,0,0,0,0c-0.1-0.3-0.1-0.7,0-0.9c0,0,0,0,0,0c0.3-0.4,0.7-0.6,1.3-0.8c0,0,0,0,0,0
		c0.6-0.2,1.2-0.4,1.7-0.9c0,0,0,0,0,0c0.1-0.1,0.2-0.2,0.2-0.3c0,0,0-0.1,0-0.1c0-0.1,0-0.3,0-0.4c0,0,0,0,0,0
		c-0.1-0.3-0.4-0.5-0.6-0.6h0c-0.3-0.2-0.7-0.2-1-0.1l0,0h0c-0.3,0.1-0.6,0.2-0.9,0.3c0,0,0,0,0,0c-0.4,0.1-0.7,0.1-1,0
		c0,0,0-0.1,0-0.2h0c0-0.6,0-1.3,0-1.9c0,0,0,0,0,0c0-1,0.1-2-0.1-3.1c0,0,0,0,0,0c-0.3-1.8-1.5-3.3-2.9-4.3c-1-0.7-2.3-1.1-3.5-1.3
		l0,0c-0.4,0-0.9-0.1-1.3-0.1c-1.7,0-3.5,0.5-4.8,1.5c-1,0.8-1.8,1.9-2.4,3.1v0c-0.5,1.2-0.4,2.5-0.4,3.7l0,0c0,0.9,0.1,1.7,0.1,2.5
		c0,0,0,0,0,0.1c-0.4,0.1-0.8,0-1.2,0h0c-0.3,0-0.6-0.2-0.9-0.3c0,0,0,0,0,0c-0.3-0.1-0.7,0-0.9,0.2c0,0,0,0,0,0c0,0,0,0,0,0
		c-0.2,0.1-0.5,0.4-0.5,0.7c0,0,0,0,0,0.1c0,0,0,0,0,0c0,0.2,0.2,0.4,0.3,0.5c0.1,0.1,0.2,0.2,0.3,0.2c0,0,0,0,0,0
		c0.6,0.4,1.3,0.6,1.9,0.8l0,0c0.4,0.2,0.8,0.5,0.9,0.8c0.1,0.4-0.1,1-0.3,1.5v0c-0.7,1.3-1.7,2.5-2.9,3.3c-0.6,0.4-1.4,0.8-2.1,1
		c0,0,0,0,0,0c-0.2,0.1-0.5,0.1-0.8,0.4c0,0,0,0.1,0,0.1c-0.1,0.2,0,0.5,0.1,0.6c0.1,0.1,0.2,0.2,0.3,0.3c0,0,0,0,0,0
		c0.6,0.4,1.3,0.5,2,0.7c0,0,0,0,0,0c0.5,0.1,0.9,0.2,1.2,0.3c0,0,0.1,0.1,0.1,0.3c0.1,0.3,0.2,0.8,0.3,1.2c0,0.1,0.1,0.2,0.3,0.2
		c0.3,0.1,0.4,0,0.5,0c0,0,0,0,0,0c1.1-0.2,2.1-0.3,3.1-0.1l0,0c1,0.3,1.9,1,2.9,1.6v0l0,0c0.7,0.4,1.4,0.8,2.3,0.8l0,0c0,0,0,0,0,0
		c0.7,0,1.3,0,2,0c0,0,0,0,0,0c0.5-0.1,1.1-0.2,1.5-0.5c0,0,0,0,0,0c1.1-0.6,2-1.3,3-1.8h0c0.3-0.1,0.7-0.1,1.2-0.1c0,0,0,0,0,0
		c0.9,0,1.7,0,2.5,0.1c0,0,0.1,0,0.1,0c0.1,0,0.2-0.1,0.3-0.2c0.1-0.1,0.1-0.1,0.1-0.2c0-0.1,0-0.1,0-0.1c0,0,0,0,0-0.1
		c0.2-0.5,0.2-1,0.5-1.2c0.1-0.1,0.3-0.2,0.5-0.2c0,0,0,0,0,0c0.7-0.1,1.4-0.3,2-0.6c0,0,0,0,0,0c0.2-0.1,0.6-0.2,0.8-0.5
		c0,0,0,0,0,0l0,0C-470.9,226.6-471,226.3-471.3,226.1L-471.3,226.1z"/>
</g>
<g id="XMLID_2331_">
	<g id="XMLID_2332_">
		<path id="XMLID_2334_" class="st5" d="M-528.1,218.6c-0.2-6.9-5.8-12.4-12.8-12.4c-6.9,0-12.5,5.4-12.8,12.1c0,0.2,0,0.4,0,0.6
			c0,2.4,0.7,4.6,1.8,6.5l-2.3,6.8l7.1-2.2c1.8,1,3.9,1.6,6.2,1.6c7.1,0,12.8-5.7,12.8-12.7C-528.1,218.8-528.1,218.7-528.1,218.6z
			 M-540.9,229.5c-2.2,0-4.2-0.6-5.9-1.8l-4.1,1.3l1.3-4c-1.3-1.8-2-3.9-2-6.2c0-0.3,0-0.7,0.1-1c0.5-5.4,5.1-9.6,10.7-9.6
			c5.6,0,10.3,4.3,10.7,9.8c0,0.3,0,0.6,0,0.8C-530.1,224.8-535,229.5-540.9,229.5z"/>
		<path id="XMLID_2333_" class="st5" d="M-535,221.4c-0.3-0.2-1.9-0.9-2.1-1c-0.3-0.1-0.5-0.2-0.7,0.2c-0.2,0.3-0.8,1-1,1.2
			c-0.2,0.2-0.4,0.2-0.7,0.1c-0.3-0.2-1.3-0.5-2.5-1.5c-0.9-0.8-1.6-1.8-1.7-2.1c-0.2-0.3,0-0.5,0.1-0.6c0.1-0.1,0.3-0.4,0.5-0.5
			c0-0.1,0.1-0.1,0.1-0.1c0.1-0.1,0.1-0.2,0.2-0.4c0.1-0.2,0.1-0.4,0-0.5c-0.1-0.2-0.7-1.7-1-2.3c-0.3-0.6-0.5-0.5-0.7-0.5
			c-0.2,0-0.4,0-0.6,0c-0.2,0-0.6,0.1-0.8,0.4c-0.3,0.3-1.1,1.1-1.1,2.6c0,0.4,0.1,0.7,0.2,1.1c0.3,1.1,1,2,1.1,2.2
			c0.2,0.2,2.2,3.4,5.3,4.7c3.2,1.2,3.2,0.8,3.8,0.8c0.6,0,1.9-0.7,2.1-1.5c0.3-0.7,0.3-1.3,0.2-1.5
			C-534.5,221.7-534.7,221.6-535,221.4z"/>
	</g>
</g>
<g id="XMLID_2324_">
	<path id="XMLID_2325_" class="st0" d="M-384.2,219.2c0,7.3,5.9,13.2,13.2,13.2c0.8,0,1.7-0.1,2.5-0.2c1.2,0.7,2.5,1.1,4,1.1
		c4.3,0,7.7-3.5,7.7-7.7c0-1.5-0.4-2.9-1.2-4.1c0.1-0.7,0.2-1.5,0.2-2.3c0-7.3-5.9-13.2-13.2-13.2c-0.8,0-1.6,0.1-2.4,0.2
		c-1.2-0.7-2.5-1.1-4-1.1c-4.3,0-7.7,3.5-7.7,7.7c0,1.5,0.4,2.9,1.1,4C-384.1,217.6-384.2,218.4-384.2,219.2z M-370.8,209.8
		c4.3,0.3,6.8,2.1,7,3.9c0.1,1.1-0.6,2-2,2c-1.9,0-2.1-2.6-5.4-2.6c-1.5,0-2.8,0.6-2.8,2c0,2.8,10.6,1.2,10.6,7.4
		c0,3.6-2.9,5.9-7.1,5.9c-3.8,0-7.5-1.7-7.5-4.6c0-0.9,0.7-1.7,1.5-1.7c2.2,0,2.2,3.3,5.7,3.3c2.5,0,3.3-1.3,3.3-2.3
		c0-3.4-10.7-1.3-10.7-7.7C-378.1,212-375.3,209.6-370.8,209.8z"/>
</g>
<g id="XMLID_2319_">
	<path id="XMLID_2320_" class="st0" d="M-719.5,272.3c0.4,0.2,0.7,0,0.8-0.4c0.1-0.3,0.3-1,0.3-1.3c0.1-0.4,0.1-0.5-0.2-0.9
		c-0.7-0.8-1.1-1.8-1.1-3.2c0-4.1,3.1-7.7,8-7.7c4.3,0,6.7,2.7,6.7,6.2c0,4.7-2.1,8.6-5.1,8.6c-1.7,0-3-1.4-2.6-3.1
		c0.5-2,1.4-4.3,1.4-5.7c0-1.3-0.7-2.4-2.2-2.4c-1.7,0-3.1,1.8-3.1,4.2c0,1.5,0.5,2.6,0.5,2.6s-1.8,7.5-2.1,8.8
		c-0.6,2.6-0.1,5.8,0,6.1c0,0.2,0.3,0.2,0.4,0.1c0.2-0.2,2.2-2.8,2.9-5.3c0.2-0.7,1.1-4.4,1.1-4.4c0.6,1.1,2.2,2,4,2
		c5.2,0,8.7-4.7,8.7-11.1c0-4.8-4.1-9.3-10.2-9.3c-7.7,0-11.6,5.5-11.6,10.1C-722.9,268.9-721.8,271.4-719.5,272.3z"/>
</g>
<g id="XMLID_2305_">
	<g id="XMLID_2306_">
		<path id="XMLID_2312_" class="st0" d="M-771.9,278c0.7-0.1,1.3-0.4,1.9-0.8c0.5-0.4,0.9-0.8,1.2-1.3c0.5-0.8,0.7-1.7,0.7-2.6
			c0-1-0.2-1.8-0.6-2.4c-0.4-0.7-1.1-1.2-1.9-1.5c0.6-0.3,1-0.6,1.3-0.9c0.5-0.6,0.8-1.4,0.8-2.4c0-1-0.3-1.8-0.8-2.5
			c-0.8-1.1-2.3-1.7-4.3-1.8h-8v16.6h7.5C-773.4,278.2-772.7,278.1-771.9,278z M-778.5,264.5h3.6c0.8,0,1.4,0.1,2,0.3
			c0.6,0.2,0.9,0.8,0.9,1.5c0,0.7-0.2,1.2-0.7,1.5c-0.4,0.3-1,0.4-1.8,0.4h-4V264.5z M-778.5,275.3v-4.4h4.1c0.7,0,1.3,0.1,1.7,0.3
			c0.7,0.3,1.1,0.9,1.1,1.8c0,1-0.4,1.7-1.1,2.1c-0.4,0.2-1,0.3-1.7,0.3H-778.5z"/>
		<g id="XMLID_2307_">
			<path id="XMLID_2309_" class="st0" d="M-765.3,277.1c1.2,1,2.7,1.5,4.3,1.5c2,0,3.5-0.6,4.6-1.8c0.7-0.8,1.1-1.5,1.2-2.2h-3.3
				c-0.2,0.4-0.4,0.6-0.7,0.8c-0.5,0.4-1.1,0.6-1.8,0.6c-0.7,0-1.3-0.2-1.8-0.5c-0.8-0.5-1.2-1.4-1.3-2.6h8.9c0-1.1,0-1.9-0.1-2.4
				c-0.1-1-0.5-1.8-1-2.5c-0.6-0.8-1.3-1.4-2.1-1.8c-0.9-0.4-1.8-0.6-2.9-0.6c-1.8,0-3.3,0.6-4.4,1.7c-1.1,1.1-1.7,2.8-1.7,4.9
				C-767.2,274.5-766.6,276.1-765.3,277.1z M-763,269c0.5-0.5,1.1-0.7,1.9-0.7c0.8,0,1.4,0.2,1.9,0.7c0.5,0.4,0.8,1.1,0.9,1.9h-5.5
				C-763.8,270.1-763.5,269.4-763,269z"/>
			<rect id="XMLID_2308_" x="-764.9" y="262.6" class="st0" width="7.2" height="1.7"/>
		</g>
	</g>
</g>
<g id="XMLID_2296_">
	<g id="XMLID_2297_">
		<g id="XMLID_2299_">
			<rect id="XMLID_2301_" x="-606" y="264.8" class="st0" width="4.9" height="15.9"/>
			<path id="XMLID_2300_" class="st0" d="M-603.5,262.8c1.6,0,2.9-1.3,2.9-2.9s-1.3-2.9-2.9-2.9c-1.6,0-2.9,1.3-2.9,2.9
				S-605.1,262.8-603.5,262.8z"/>
		</g>
		<path id="XMLID_2298_" class="st0" d="M-593.2,272.4c0-2.2,1-3.6,3-3.6c1.8,0,2.7,1.3,2.7,3.6c0,2.3,0,8.3,0,8.3h4.9
			c0,0,0-5.8,0-10c0-4.2-2.4-6.3-5.8-6.3c-3.4,0-4.8,2.6-4.8,2.6v-2.1h-4.7v15.9h4.7C-593.2,280.7-593.2,274.8-593.2,272.4z"/>
	</g>
</g>
<g id="XMLID_2287_">
	<path id="XMLID_2288_" class="st0" d="M-652.9,256.3c-7.7,0-13.9,6.2-13.9,13.9c0,7.7,6.2,13.9,13.9,13.9c7.7,0,13.9-6.2,13.9-13.9
		C-639.1,262.5-645.3,256.3-652.9,256.3z M-646.6,276.3c-0.3,0.4-0.8,0.6-1.2,0.3c-3.3-2-7.3-2.4-12.2-1.3c-0.5,0.1-0.9-0.2-1-0.6
		c-0.1-0.5,0.2-0.9,0.6-1c5.3-1.2,9.8-0.7,13.4,1.5C-646.4,275.3-646.3,275.9-646.6,276.3z M-644.9,272.5c-0.3,0.5-1,0.7-1.5,0.3
		c-3.7-2.3-9.4-3-13.8-1.6c-0.6,0.1-1.2-0.1-1.3-0.7c-0.1-0.6,0.1-1.2,0.7-1.3c5.1-1.5,11.3-0.8,15.6,1.9
		C-644.7,271.3-644.5,272-644.9,272.5z M-644.7,268.6c-4.4-2.6-11.9-2.9-16.1-1.6c-0.7,0.2-1.4-0.2-1.6-0.8
		c-0.2-0.7,0.2-1.4,0.8-1.6c4.9-1.5,13-1.2,18.2,1.9c0.6,0.3,0.8,1.2,0.5,1.8C-643.3,268.7-644.1,268.9-644.7,268.6z"/>
</g>
<g id="XMLID_2282_">
	<path id="XMLID_2283_" class="st0" d="M-475.5,258.5c-3.7-0.1-6.3,2-7.6,6.3c0.7-0.3,1.3-0.4,2-0.4c1.4,0,2,0.8,1.8,2.3
		c-0.1,0.9-0.7,2.3-1.8,4.1c-1.1,1.8-2,2.7-2.5,2.7c-0.7,0-1.4-1.4-2-4.1c-0.2-0.8-0.6-2.9-1.1-6.2c-0.5-3.1-1.8-4.5-3.9-4.3
		c-0.9,0.1-2.2,0.9-4,2.4c-1.3,1.2-2.6,2.3-3.9,3.5l1.3,1.6c1.2-0.8,1.9-1.3,2.1-1.3c0.9,0,1.8,1.5,2.6,4.3c0.7,2.7,1.4,5.3,2.2,8
		c1.1,2.9,2.4,4.3,4,4.3c2.5,0,5.6-2.4,9.3-7.1c3.5-4.6,5.4-8.1,5.5-10.8C-471.4,260.4-472.7,258.6-475.5,258.5z"/>
</g>
<g id="XMLID_2270_">
	<path id="XMLID_2271_" class="st0" d="M-426.5,255c-8.3,0-15.1,6.8-15.1,15.1c0,8.3,6.8,15.1,15.1,15.1c8.3,0,15.1-6.8,15.1-15.1
		C-411.3,261.8-418.1,255-426.5,255z M-426.5,257.6c2.9,0,5.5,1,7.6,2.6c-1.5,2-3.6,3.5-6.3,4.6c-1.3-2.3-2.7-4.6-4.4-6.8
		C-428.5,257.8-427.5,257.6-426.5,257.6z M-432.1,259c1.7,2.2,3.2,4.5,4.5,6.8c-3.1,0.9-6.7,1.4-10.9,1.4
		C-437.7,263.6-435.3,260.6-432.1,259z M-438.9,270.1c0-0.1,0-0.2,0-0.3c4.8,0,9-0.6,12.5-1.7c0.3,0.6,0.6,1.2,0.8,1.8
		c-4.3,1.3-7.8,4.1-10.5,8.2C-437.9,275.9-438.9,273.2-438.9,270.1z M-426.5,282.6c-2.9,0-5.5-1-7.7-2.6c2.5-3.9,5.6-6.4,9.6-7.6
		c1.2,3,2,6.2,2.6,9.4C-423.4,282.3-424.9,282.6-426.5,282.6z M-419.5,280.5c-0.6-3-1.4-5.9-2.4-8.7c2.4-0.3,5-0.2,7.8,0.2
		C-414.7,275.6-416.7,278.6-419.5,280.5z M-423,269.3c-0.3-0.7-0.6-1.4-1-2.1c2.9-1.3,5.2-3,7-5.1c1.7,2,2.8,4.6,2.9,7.4
		C-417.3,268.9-420.2,268.9-423,269.3z"/>
</g>
<g id="XMLID_2255_">
	<g id="XMLID_2257_" transform="translate(-1)">
		<path id="XMLID_2266_" class="st0" d="M-384.5,262.4l7.3,4.6l7.3-4.6l-7.3-4.6L-384.5,262.4z"/>
		<path id="XMLID_2265_" class="st0" d="M-370,262.4l7.3,4.6l7.3-4.6l-7.3-4.6L-370,262.4z"/>
		<path id="XMLID_2260_" class="st0" d="M-384.5,271.6l7.3,4.6l7.3-4.6l-7.3-4.6L-384.5,271.6z"/>
		<path id="XMLID_2259_" class="st0" d="M-362.7,267l-7.3,4.6l7.3,4.6l7.3-4.6L-362.7,267z"/>
		<path id="XMLID_2258_" class="st0" d="M-377.2,277.8l7.3,4.6l7.3-4.6l-7.3-4.6L-377.2,277.8z"/>
	</g>
</g>
<g id="XMLID_2245_">
	<g id="XMLID_2250_">
		<path id="XMLID_2252_" class="st0" d="M-522.9,260.9c-0.4-1.6-1.7-2.9-3.4-3.4c-3-0.8-14.8-0.8-14.8-0.8s-11.9,0-14.8,0.8
			c-1.6,0.4-2.9,1.7-3.4,3.4c-0.8,3-0.8,9.2-0.8,9.2s0,6.2,0.8,9.2c0.4,1.6,1.7,2.9,3.4,3.4c3,0.8,14.8,0.8,14.8,0.8
			s11.9,0,14.8-0.8c1.6-0.4,2.9-1.7,3.4-3.4c0.8-3,0.8-9.2,0.8-9.2S-522.1,263.9-522.9,260.9z"/>
		<polygon id="XMLID_2251_" class="st1" points="-545,275.8 -545,264.5 -535.1,270.1 		"/>
	</g>
</g>
<rect id="XMLID_1673_" x="-819.1" y="-147.5" width="500" height="24.1"/>
<rect id="XMLID_774_" x="-819.1" y="328.4" width="500" height="24.1"/>
<g id="XMLID_861_">
	<g id="XMLID_990_">
		<path id="XMLID_1036_" d="M-631.4-60.1c1.7,0,2.7,0.8,2.7,2.1c0,1-0.6,1.7-1.6,1.9c1.2,0.2,1.9,1,1.9,2.1c0,1.4-1.1,2.3-3,2.3
			h-3.6v-8.5H-631.4z M-634-56.5h2.6c1.1,0,1.8-0.5,1.8-1.4c0-0.9-0.7-1.3-1.8-1.3h-2.6V-56.5z M-634-52.6h2.6
			c1.4,0,2.2-0.5,2.2-1.5c0-0.9-0.8-1.5-2.2-1.5h-2.6V-52.6z"/>
		<path id="XMLID_1033_" d="M-620.7-53.8l-0.9,2.1h-1l3.8-8.5h1l3.8,8.5h-1.1l-0.9-2.1H-620.7z M-618.4-59l-1.9,4.3h3.8L-618.4-59z"
			/>
		<path id="XMLID_1008_" d="M-601.4-58.9l-0.6,0.7c-0.7-0.7-1.6-1.1-2.5-1.1c-1.9,0-3.4,1.5-3.4,3.3c0,1.9,1.5,3.3,3.4,3.3
			c0.9,0,1.8-0.4,2.5-1l0.6,0.7c-0.8,0.8-2,1.3-3.1,1.3c-2.4,0-4.4-1.9-4.4-4.3c0-2.4,2-4.2,4.4-4.2
			C-603.4-60.2-602.2-59.7-601.4-58.9z"/>
		<path id="XMLID_1006_" d="M-592.2-55.7l-1.6,1.8v2.2h-1v-8.5h1v4.9l4.6-4.9h1.1l-3.4,3.7l3.6,4.8h-1.2L-592.2-55.7z"/>
		<path id="XMLID_1004_" d="M-575-55.8v3.1c-0.8,0.7-2,1.1-3.1,1.1c-2.5,0-4.4-1.9-4.4-4.3c0-2.4,2-4.3,4.5-4.3
			c1.2,0,2.3,0.4,3.1,1.2l-0.6,0.7c-0.7-0.6-1.6-1-2.6-1c-1.9,0-3.5,1.5-3.5,3.4c0,1.9,1.6,3.4,3.5,3.4c0.8,0,1.6-0.3,2.2-0.7v-2.6
			H-575z"/>
		<path id="XMLID_1001_" d="M-564.1-54.4c-0.2,0-0.4,0-0.6,0h-2.3v2.7h-1v-8.5h3.2c2.1,0,3.3,1,3.3,2.8c0,1.4-0.7,2.3-1.9,2.7l2,2.9
			h-1.1L-564.1-54.4z M-564.6-55.3c1.5,0,2.4-0.7,2.4-2c0-1.3-0.9-1.9-2.4-1.9h-2.3v3.9H-564.6z"/>
		<path id="XMLID_998_" d="M-546.2-55.9c0,2.4-2,4.3-4.4,4.3c-2.5,0-4.4-1.9-4.4-4.3c0-2.4,2-4.3,4.4-4.3
			C-548.1-60.2-546.2-58.3-546.2-55.9z M-554.1-55.9c0,1.9,1.6,3.4,3.5,3.4c1.9,0,3.4-1.5,3.4-3.4c0-1.9-1.5-3.3-3.4-3.3
			C-552.5-59.2-554.1-57.8-554.1-55.9z"/>
		<path id="XMLID_996_" d="M-532.6-55.2c0,2.2-1.3,3.5-3.5,3.5c-2.2,0-3.6-1.3-3.6-3.5v-5h1v5c0,1.6,1,2.6,2.6,2.6
			c1.6,0,2.6-1,2.6-2.6v-5h1V-55.2z"/>
		<path id="XMLID_994_" d="M-519.4-51.7l-5.1-6.8v6.8h-1v-8.5h1l5.1,6.8v-6.8h1v8.5H-519.4z"/>
		<path id="XMLID_991_" d="M-507.5-60.1c2.5,0,4.4,1.8,4.4,4.2c0,2.4-1.9,4.2-4.4,4.2h-3.4v-8.5H-507.5z M-510-52.6h2.5
			c1.9,0,3.4-1.4,3.4-3.3c0-1.9-1.5-3.3-3.4-3.3h-2.4V-52.6z"/>
	</g>
	<g id="XMLID_862_">
		<path id="XMLID_988_" d="M-635.4-75.7l-0.1-0.4l-0.2-0.4l-0.1-0.4l-0.4-0.7l-0.2-0.2l-0.2-0.2l-0.1-0.2l-0.2-0.2l-0.1-0.2
			l-0.2-0.2l-0.2-0.2l-0.2-0.2l-0.2-0.2l-0.4-0.4l-0.1-0.2l-0.2-0.2l-0.1-0.1l-0.2-0.2l-0.5-0.6l-0.2-0.3l-0.6-0.9l-0.2-0.3
			l-0.1-0.3l-0.1-0.2l-0.1-0.3l-0.2-0.5l-0.1-0.3l0-0.2v-0.3l0-0.3v-0.4l0-0.4l0-0.3l0-0.3l0.1-0.5l0.1-0.3l0.1-0.3l0.1-0.2l0.1-0.3
			l0.1-0.2l0.2-0.2l0.2-0.2l0.4-0.4l0.2-0.2l0.2-0.1l0.5-0.2l0.3-0.1l0.7-0.3l0.3-0.1l0.5-0.1h0.6l0.5,0h0.3l0.4,0l0.3,0l0.6,0.1
			l0.3,0.1l0.2,0.1l0.3,0.1l0.6,0.4l0.2,0.2l0.2,0.2l0.1,0.2l0.2,0.2l0.2,0.2l0.2,0.3l0.2,0.3l0.1,0.3l0.1,0.3l0,0.3l0.1,0.4v0.9
			l0,0.3l-0.1,0.3l-0.1,0.2l-0.2,0.1l-0.2,0.1l-0.3,0l-0.2,0l-0.3-0.1l-0.2-0.1l-0.2-0.3l-0.1-0.3l0-0.3v-0.6l0-0.3l-0.1-0.2
			l-0.1-0.3l-0.1-0.2l-0.1-0.2l-0.2-0.2l-0.2-0.2l-0.2-0.1l-0.2-0.1l-0.2-0.1l-0.3-0.1l-0.2,0l-0.8-0.1h-0.3l-0.3,0l-0.5,0.2
			l-0.5,0.3l-0.2,0.2l-0.2,0.2l-0.1,0.2l-0.1,0.3l-0.1,0.2l-0.1,0.3l-0.1,0.3l-0.1,0.3l0,0.3v0.6l0,0.3l0.1,0.3l0.1,0.2l0.1,0.3
			l0.1,0.2l0.1,0.3l0.2,0.4l0.2,0.3l0.3,0.5l0.7,0.8l0.1,0.2l0.6,0.6l0.7,0.8l0.4,0.4l0.1,0.2l0.3,0.4l0.2,0.2l0.2,0.2l0.1,0.2
			l0.1,0.2l0.1,0.2l0.2,0.5l0.1,0.3l0.1,0.2l0.1,0.3l0.1,0.2l0.1,0.3l0,0.3l0.1,0.3l0,0.3l0,0.3l-0.1,0.5l-0.1,0.5l0,0.3l0,0.2
			l-0.1,0.3l-0.1,0.3l-0.1,0.2l-0.1,0.3l-0.4,0.6l-0.2,0.3l-0.2,0.2l-0.2,0.2l-0.1,0.1l-0.2,0.2l-0.1,0.1l-0.5,0.4l-0.5,0.2
			l-0.2,0.1l-0.3,0.1l-0.2,0.1l-0.2,0.1l-0.3,0.1l-0.3,0.1l-0.3,0l-0.2,0.1l-0.9,0.1h-0.7l-0.8-0.1h-0.2l-0.3-0.1l-0.4-0.1l-0.6-0.2
			l-0.2-0.1l-0.2-0.1l-0.3-0.2l-0.5-0.4l-0.5-0.5l-0.2-0.2l-0.3-0.4l-0.1-0.2l-0.1-0.2l-0.2-0.5l-0.1-0.3l-0.1-0.4l-0.1-0.4
			l-0.1-0.3l0-0.3v-0.6l0-0.2v-0.5l0-0.3l0.2-0.8l0.1-0.4l0.1-0.4l0.1-0.3l0.2-0.3l0.4-0.2h0.4l0.4,0.1l0.2,0.2l0.1,0.3v0.4l0,0.3
			l-0.1,0.3l-0.1,0.3l0,0.3l-0.1,0.3v0.8l0.1,0.8l0.1,0.3l0.3,0.8l0.1,0.2l0.2,0.3l0.1,0.1l0.2,0.2l0.2,0.2l0.2,0.2l0.2,0.1l0.2,0.1
			l0.2,0.1l0.3,0.1l0.2,0.1l0.3,0.1l0.3,0h0.4l0.8-0.1l0.4,0l0.3-0.1l0.5-0.2l0.2-0.1l0.2-0.1l0.2-0.3l0.3-0.3l0.2-0.2l0.2-0.3
			l0.2-0.3l0.1-0.3l0.1-0.4l0.1-0.4l0.1-0.4l0-0.3l0-0.4l0-0.4L-635.4-75.7z"/>
		<path id="XMLID_985_" d="M-622.2-70.8l-0.4,0.4l-0.5,0.3l-0.2,0.1l-0.5,0.3l-0.2,0.1l-0.5,0.2l-0.3,0.1l-0.5,0.1l-0.2,0.1
			l-0.3,0.1l-0.2,0h-0.3l-0.3,0h-0.3l-0.5-0.1l-0.3-0.1l-0.3-0.1l-0.2-0.1l-0.3-0.1l-0.2-0.1l-0.5-0.3l-0.2-0.2l-0.4-0.4l-0.1-0.2
			L-630-71l-0.1-0.2l-0.2-0.5l-0.1-0.5l-0.1-0.5l0-0.3l0-0.3v-0.8l0.1-0.3l0.1-0.2l0.1-0.3l0.1-0.5l0.1-0.3l0.1-0.3l0.1-0.2l0.1-0.3
			l0.1-0.3l0.1-0.2l0.1-0.3l0.1-0.4l0.2-0.4l0.1-0.2l0.2-0.2l0.1-0.2l0.2-0.2l0.3-0.5l0.2-0.2l0.4-0.4l0.4-0.4l0.2-0.1l0.2-0.2
			l0.3-0.2l0.3-0.2l0.3-0.2l0.2-0.1l0.3-0.1l0.2-0.1l0.3-0.1l0.2-0.1l0.3-0.1l0.3-0.1l0.3,0l0.3,0h0.7l0.5,0.1l0.4,0.1l0.3,0.1
			l0.3,0.1l0.2,0.1l0.5,0.3l0.3,0.2l0.2,0.2l0.1,0.2l0.2,0.2l0.2,0.2l0.4,0.6l0.1,0.3l0,0.3l0,0.2l0.1,0.5v1l-0.1,0.4l0,0.3l0,0.3
			l-0.2,0.9l-0.1,0.4l-0.1,0.3l-0.1,0.3l-0.1,0.3l-0.1,0.3l-0.2,0.3l-0.3,0.5l-0.1,0.3l0,0.2l0.2,0h0.2l0.3,0l0.2,0l0.3-0.1l0.3-0.1
			l0.2-0.1l0.5-0.3l0.2-0.2l0.4-0.4l0.4-0.4l0.1-0.2l0.1-0.2l0.1-0.2l0.2-0.5l0.3-0.5l0.1-0.2l0.2-0.3l0.3-0.1l0.4,0.1l0.2,0.3
			l0,0.3l-0.1,0.3l-0.4,0.7l-0.1,0.2l-0.3,0.5l-0.1,0.2l-0.1,0.2l-0.2,0.2l-0.1,0.2l-0.2,0.2l-0.4,0.4l-0.2,0.2l-0.2,0.2l-0.2,0.1
			l-0.2,0.2l-0.2,0.1l-0.5,0.2l-0.3,0.1l-0.2,0.1l-1.1,0.1l-0.3,0l-0.3,0l-0.2-0.1l-0.2,0l-0.2,0.1L-622-71L-622.2-70.8z M-628-74
			l0,0.4l0,0.3l0,0.4l0.1,0.5l0.1,0.5l0.2,0.4l0.2,0.3l0.2,0.2l0.3,0.1l0.4,0.1h0.4l0.3,0l0.3-0.1l0.3-0.1l0.2-0.1l0.3-0.1l0.2-0.1
			l0.2-0.2l0.2-0.2l0.1-0.2v-0.2l-0.1-0.2l-0.1-0.2l-0.1-0.3l0.1-0.4l0.1-0.4l0.2-0.2l0.2-0.1l0.3,0l0.3,0.1l0.2,0.1l0.2,0l0.1-0.2
			l0.1-0.2l0.4-1.1l0.2-0.8l0.1-0.4l0.1-0.5l0.1-1l0-0.5l-0.1-0.5l-0.2-0.4l-0.2-0.3l-0.2-0.2l-0.4-0.1l-0.4-0.1l-0.4,0h-0.3
			l-0.2,0.1l-0.3,0.1l-0.3,0.2l-0.2,0.1l-0.3,0.2l-0.3,0.2l-0.2,0.2l-0.2,0.2l-0.1,0.2l-0.2,0.2l-0.1,0.2l-0.3,0.4l-0.1,0.2
			l-0.6,1.2l-0.1,0.3l-0.1,0.2l-0.2,0.5l-0.1,0.2l-0.1,0.3l0,0.3v0.3L-628-74z"/>
		<path id="XMLID_983_" d="M-613.1-69.2l-0.2,0l-0.3-0.1l-0.3-0.1l-0.4-0.1l-0.3-0.2l-0.3-0.1l-0.3-0.2l-0.3-0.3l-0.2-0.2l-0.2-0.2
			l-0.2-0.2l-0.1-0.2l-0.1-0.3l-0.1-0.4l-0.1-0.3l-0.1-0.3l-0.1-0.4l-0.1-0.4l0-0.3l0-0.3v-0.5l0-0.2l0-0.3l0-0.3l0.1-0.4l0.1-0.4
			l0.1-0.3l0.1-0.3l0.2-0.6l0.1-0.3l0.1-0.3l0.5-0.9l0.1-0.2l0.3-0.4l0.4-0.4l0.1-0.1l0.2-0.2l0.2-0.2l0.2-0.2l0.2-0.2l0.2-0.1
			l0.2-0.2l0.2-0.1l0.2-0.1l0.2-0.1l0.2-0.1l0.2-0.1l0.3-0.1l0.6-0.2l0.3-0.1l0.3-0.1l0.3,0l0.3,0h0.5l0.3,0l0.4,0.1l0.4,0.1
			l0.4,0.1l0.3,0.1l0.2,0.1l0.2,0.1l0.2,0.2l0.2,0.2l0.2,0.2l0.1,0.3l0.1,0.3l0.1,0.4l0,0.3l0,0.4l-0.1,0.4l-0.1,0.3l-0.1,0.2
			l-0.1,0.2l-0.2,0.3l-0.2,0.3l-0.2,0.2l-0.2,0.2l-0.2,0.1l-0.4,0.1h-0.5l-0.5-0.1l-0.3-0.2v-0.3l0.1-0.3l0.2-0.3l0.2-0.3l0.1-0.3
			l0.1-0.2l0.1-0.3v-0.2l-0.1-0.3l-0.2-0.3l-0.3-0.2l-0.3-0.1l-0.3,0l-0.3,0l-0.4,0.1l-0.4,0.1l-0.3,0.1l-0.2,0.1l-0.2,0.2l-0.2,0.1
			l-0.2,0.2l-0.2,0.3l-0.2,0.2l-0.2,0.3l-0.3,0.3l-0.2,0.3l-0.1,0.3l-0.1,0.2l-0.1,0.2l-0.1,0.2l-0.1,0.3l-0.1,0.2l-0.1,0.3
			l-0.1,0.4l-0.1,0.4l-0.1,0.3l-0.1,0.4l0,0.4l0,0.3v0.4l0,0.5l0.1,0.4l0.1,0.3l0.3,0.6l0.2,0.2l0.2,0.2l0.2,0.2l0.3,0.1l0.4,0.1
			l0.3,0.1l0.4,0.1h0.6l0.7-0.1l0.3-0.1l0.3-0.1l0.3-0.1l0.3-0.2l0.3-0.1l0.7-0.4l0.3-0.2l0.3-0.2l0.4-0.4l0.4-0.4l0.2-0.2l0.4-0.4
			l0.3-0.4l0.2-0.3l0.1-0.2l0.2-0.3l0.2-0.3l0.1-0.3l0.2-0.4l0.3-0.2l0.4,0.1l0.2,0.3v0.3l-0.1,0.2l-0.1,0.2l-0.1,0.3l-0.1,0.3
			l-0.2,0.3l-0.2,0.3l-0.2,0.4l-0.4,0.6l-0.2,0.2l-0.1,0.2l-0.2,0.2l-0.5,0.6l-0.1,0.2l-0.2,0.2l-0.2,0.2l-0.4,0.3l-0.2,0.1
			l-0.2,0.1l-0.3,0.2l-0.2,0.1l-0.2,0.1l-0.2,0.1l-0.4,0.1l-0.4,0.1l-0.3,0.1l-0.4,0.1l-0.4,0.1l-0.5,0.1l-0.8,0.1l-0.5-0.1
			L-613.1-69.2z"/>
		<path id="XMLID_980_" d="M-598.3-75.8v0.3l-0.1,0.3l-0.2,0.5l-0.3,0.4L-599-74l-0.1,0.2l-0.2,0.3l-0.1,0.2l-0.1,0.3l-0.1,0.2
			l-0.1,0.2l-0.2,0.2l-0.1,0.2l-0.3,0.5l-0.5,0.6l-0.4,0.4l-0.2,0.2l-0.2,0.2l-0.2,0.2l-0.6,0.5l-0.2,0.1l-0.3,0.1l-0.3,0.1
			l-0.2,0.1l-0.5,0.1h-0.5l-0.3,0l-0.2-0.1l-0.3-0.1l-0.2-0.1l-0.2-0.2l-0.1-0.2l-0.1-0.2l-0.1-0.3l-0.1-0.2l-0.1-0.3l0-0.3v-0.3
			l0.1-0.5l0.1-0.3l0.1-0.3l0.1-0.5l0.1-0.2l0.1-0.3l0.1-0.3l0.1-0.2l0.3-0.8l0-0.2l0.1-0.3l0.1-0.3l0.1-0.3l0.1-0.2l0.2-0.5
			l0.1-0.4l0.1-0.4l0.2-0.5l0.1-0.3l0.1-0.2l0.1-0.3l0.1-0.3l0.1-0.2l0.2-0.8l0.1-0.3l0.1-0.4l0.1-0.4l0.1-0.3l0.1-0.2l0.2-0.1
			l0.3-0.1l0.2,0l0.3,0l0.5,0.1l0.5,0.2l0.1,0.2v0.3l-0.1,0.3l-0.1,0.4l-0.1,0.4l-0.2,0.5l-0.1,0.2l-0.1,0.3l-0.1,0.3l-0.1,0.4
			l-0.3,0.9l-0.1,0.3l-0.1,0.4l-0.2,0.6l-0.1,0.3l-0.1,0.2l-0.1,0.3l-0.2,0.5l-0.1,0.3l-0.2,0.7l-0.2,0.5l-0.1,0.3l-0.1,0.4
			l-0.1,0.5l-0.1,0.5l0.1,0.4l0.2,0.3l0.3,0.1l0.3,0l0.3-0.1l0.2-0.1l0.2-0.2l1-1l0.2-0.2l0.1-0.2l0.2-0.2l0.3-0.5l0.2-0.2l0.1-0.2
			l0.1-0.2l0.2-0.3l0.1-0.3l0.2-0.5l0.4-0.7l0.1-0.2l0.3-0.1l0.4,0.1L-598.3-75.8z M-603-84.8l0.1-0.2l0.2-0.2l0.2-0.1l0.3-0.1
			l0.3-0.1h0.3l0.3,0.1l0.2,0.1l0.2,0.2l0.2,0.2l0.1,0.2l0.1,0.3l0,0.3v0.3l-0.1,0.3l-0.1,0.2l-0.2,0.2L-601-83l-0.2,0.2l-0.3,0.1
			l-0.3,0.1l-0.3,0l-0.3-0.1l-0.5-0.3l-0.2-0.2l-0.1-0.2l-0.1-0.3l0-0.3l0-0.3l0.1-0.3L-603-84.8z"/>
		<path id="XMLID_978_" d="M-584.9-75l-0.1,0.1l-0.1,0.3l-0.1,0.2l-0.1,0.2l-0.1,0.3l-0.1,0.2l-0.3,0.5l-0.1,0.2l-0.1,0.2l-0.1,0.2
			l-0.1,0.2l-0.2,0.2l-0.2,0.2l-0.2,0.2l-0.3,0.4l-0.2,0.2l-0.2,0.2l-0.8,0.7l-0.2,0.1l-0.3,0.1l-0.3,0.1l-0.4,0.1l-0.3,0.1
			l-0.3,0.1h-0.3l-0.4,0l-0.4-0.1l-0.3-0.1l-0.2-0.1l-0.2-0.2l-0.2-0.3l-0.2-0.3l-0.1-0.3l-0.1-0.4l0-0.4v-0.3l0-0.4l0-0.4l-0.1-0.1
			l-0.1,0.2l-0.3,0.5l-0.3,0.4l-0.2,0.2l-0.1,0.2l-0.2,0.2l-0.1,0.2l-0.2,0.2l-0.2,0.2l-0.2,0.2l-0.2,0.1l-0.2,0.1l-0.3,0.2
			l-0.4,0.2l-0.5,0.1l-0.4,0.1l-0.5,0.1l-0.3,0l-0.4-0.1l-0.4-0.1l-0.3-0.1l-0.2-0.1l-0.2-0.1l-0.4-0.4l-0.1-0.2l-0.1-0.2l-0.2-0.3
			l-0.2-0.4l-0.1-0.4l0-0.3l-0.1-0.4l0-0.5v-0.4l0-0.3l0-0.4l0.1-0.4l0.1-0.3l0.1-0.4l0.1-0.4l0.1-0.3l0.1-0.2l0.1-0.3l0.7-1.4
			l0.1-0.2l0.1-0.2l0.1-0.2l0.3-0.4l0.2-0.2l0.4-0.4l0.1-0.1l0.2-0.2l0.4-0.4l0.3-0.3l0.3-0.2l0.4-0.3l0.2-0.1l0.2-0.1l0.3-0.1
			l0.4-0.1l0.3-0.2l0.3-0.1l0.4-0.1l0.4-0.1l0.3-0.1l0.7-0.1l0.3,0h0.4l0.6,0l0.7,0.1l0.6,0.1l0.3,0.1l0.3,0.1l1.2,0.5l0.2,0.2
			l0.2,0.1l0.2,0.2l0.2,0.2l0.1,0.3l-0.1,0.4l-0.3,0.4l-0.3,0.2l-0.2,0l-0.2-0.1l-0.2-0.2l-0.3-0.1l-0.2-0.1l-0.2-0.1l-0.2-0.1
			l-0.3-0.1l-0.2-0.1l-0.5-0.1l-0.3-0.1l-0.3-0.1h-0.6l-0.2,0l-0.3,0l-0.4,0.1l-0.7,0.3l-0.3,0.1l-0.3,0.2l-0.2,0.1l-0.2,0.1
			l-0.2,0.1l-0.2,0.2l-0.2,0.2l-0.1,0.1l-0.2,0.2l-0.2,0.2l-0.1,0.2l-0.4,0.4l-0.1,0.2l-0.1,0.2l-0.4,0.7l-0.1,0.2l-0.2,0.5
			l-0.1,0.3l-0.1,0.2l-0.2,0.8l-0.1,0.3l-0.1,0.8v0.8l0,0.3l0.1,0.3l0.1,0.2l0.1,0.2l0.2,0.2l0.3,0.1l0.4,0.1l0.4,0l0.3-0.1l0.5-0.2
			l0.4-0.4l0.2-0.2l0.2-0.2l0.2-0.2l0.1-0.2l0.2-0.2l0.1-0.2l0.3-0.4l0.1-0.2l0.4-0.7l0.2-0.3l0.2-0.4l0.1-0.2l0.4-0.8l0.1-0.3
			l0.1-0.2l0.1-0.3l0.1-0.2l0.1-0.3l0.1-0.3l0.2-0.6l0.1-0.3l0.1-0.3l0.2-0.3l0.3-0.1l0.3-0.1l0.3,0l0.3,0.1l0.5,0.2l0.2,0.1
			l0.1,0.2l0,0.3l-0.1,0.2l-0.1,0.3l-0.1,0.3l-0.1,0.5l-0.1,0.3l-0.1,0.2l-0.2,0.5l-0.1,0.3l0,0.2l-0.1,0.4l-0.1,0.3l-0.1,0.5
			l-0.1,0.4l-0.1,0.3l-0.1,0.3l-0.1,0.4l-0.1,0.5l0,0.4l0,0.4l0.1,0.2l0.3,0.1l0.4,0l0.4-0.1l0.3-0.1l0.4-0.3l0.2-0.2l0.4-0.4
			l0.4-0.4l0.3-0.4l0.1-0.2l0.2-0.2l0.1-0.2l0.5-0.7l0.1-0.2l0.1-0.2l0.6-1.2l0.3-0.1l0.4,0.1l0.2,0.3l0,0.3l-0.1,0.3L-584.9-75z"/>
		<path id="XMLID_975_" d="M-576.4-83.6l-0.1,0.3l-0.2,0.5l-0.1,0.3l-0.2,0.3l-0.1,0.2l-0.1,0.2l-0.1,0.2l-0.1,0.3l-0.1,0.2
			l-0.1,0.2l-0.2,0.3l-0.3,0.3l-0.3,0.3l-0.1,0.1l-0.2,0.2l-0.4,0.4l-0.2,0.2l-0.3,0.4l-0.2,0.2l-0.2,0.2l-0.3,0.2l-0.4,0.4
			l-0.2,0.1l-0.6,0.4l-0.2,0.1l-0.2,0.1l-0.3,0.3l-0.2,0.3l-0.1,0.2l-0.1,0.3l-0.1,0.5v0.2l-0.1,0.3l-0.1,0.3l0,0.3v0.6l0,0.4v0.6
			l0.1,0.3l0,0.2l0.1,0.3l0.1,0.3l0.1,0.2l0.2,0.2l0.2,0.1l0.2,0.1l0.3,0.1h0.5l0.2,0l0.3-0.1l0.4-0.1l0.3-0.2l0.2-0.2l0.3-0.2
			l0.3-0.3l0.4-0.3l0.2-0.2l0.2-0.2l0.1-0.1l0.2-0.2l0.1-0.2l0.2-0.3l0.1-0.1l0.2-0.3l0.2-0.4l0.1-0.2l0.2-0.3l0.1-0.3l0.1-0.3
			l0.3-0.4l0.3-0.2l0.4,0.1l0.2,0.3v0.3l-0.1,0.3l-0.1,0.2l-0.1,0.2l-0.1,0.3l-0.1,0.2l-0.1,0.2l-0.1,0.2l-0.1,0.2l-0.1,0.2
			l-0.2,0.3l-0.1,0.1l-0.1,0.3l-0.2,0.2l-0.3,0.4l-0.2,0.3l-0.1,0.1l-0.2,0.3l-0.2,0.2l-0.2,0.3l-0.3,0.2l-0.2,0.2l-0.2,0.1
			l-0.2,0.2L-580-70l-0.2,0.1l-0.3,0.1l-0.2,0.1l-0.2,0.1l-0.3,0.1l-0.4,0.1l-0.6,0.1l-0.4,0l-0.3,0h-0.2l-0.3,0l-0.3-0.1l-0.2-0.1
			l-0.3-0.1l-0.2-0.1l-0.2-0.1l-0.2-0.2l-0.2-0.2l-0.2-0.2l-0.1-0.2l-0.1-0.3l-0.1-0.2l-0.1-0.3l-0.1-0.3l0-0.3l-0.1-0.3v-0.2
			l-0.1-0.3l0-0.3v-0.3l0-0.3l0-0.3v-0.2l0-0.4l0.1-0.6l0-0.4v-0.3l0.1-0.3l0.1-0.3l0.2-1l0.1-0.4l0.1-0.5l0.1-0.1l0.1-0.4l0.1-0.2
			l0.1-0.4l0.1-0.4l0.1-0.3l0.1-0.4l0.1-0.4l0-0.2l0.1-0.4l0.1-0.4l0.1-0.2l0.1-0.4l0.1-0.4l0.1-0.3l0.3-0.8l0.1-0.2l0.2-0.4
			l0.2-0.5l0.1-0.4l0.1-0.3l0.1-0.2l0.1-0.3l0.2-0.5l0.1-0.3l0.1-0.3l0.2-0.3l0.2-0.4l0.4-0.5l0.2-0.2l0.4-0.4l0.1-0.1l0.2-0.2
			l0.2-0.1l0.5-0.3l0.3-0.2l0.3-0.1l0.3-0.1l0.3-0.1h0.5l0.3,0.1l0.2,0l0.3,0.1l0.2,0.1l0.4,0.4l0.1,0.2l0.2,0.3l0.1,0.4l0.1,0.3
			l0.1,0.4l0.1,0.4v0.5l-0.1,0.8l-0.1,0.5l-0.1,0.2l-0.1,0.3l-0.2,0.7l-0.1,0.2L-576.4-83.6z M-581.3-82.8l-0.4,1.2l-0.1,0.3
			l-0.1,0.3l-0.1,0.4l-0.2,0.6l-0.1,0.3l0,0.2l-0.1,0.3l-0.1,0.3l-0.1,0.3l0.1,0.2l0.2-0.1l0.3-0.2l1.2-1.2l0.1-0.2l0.1-0.2l0.2-0.3
			l0.1-0.1l0.2-0.3l0.2-0.3l0.2-0.3l0.2-0.3l0.1-0.2l0.1-0.2l0.1-0.2l0.2-0.5l0.1-0.3l0.1-0.2l0.1-0.3l0.1-0.3l0.1-0.3l0.1-0.3
			l0.1-0.3l0.1-0.3l0.1-0.3l0.1-0.3l0-0.3l0-0.3v-0.6l-0.1-0.2l-0.1-0.2l-0.2-0.1l-0.2-0.1l-0.3,0.1l-0.3,0.2l-0.2,0.2l-0.1,0.2
			l-0.1,0.2l-0.1,0.2l-0.3,0.4l-0.1,0.3l-0.1,0.3l-0.1,0.2l-0.1,0.3l-0.1,0.2l-0.1,0.3l-0.1,0.2l-0.1,0.3l-0.2,0.4l-0.1,0.3
			L-581.3-82.8z"/>
		<path id="XMLID_973_" d="M-550.9-89.8l0.4,0.1l0.3,0.1l0.2,0.1l0.4,0.4l0.3,0.4l0.1,0.2l0.1,0.3l0.1,0.3l0.1,0.6l0,0.3v0.6l0,0.3
			l-0.1,0.4l0,0.4l0,0.2l0,0l0.1-0.1l0.1-0.2l0.1-0.2l0.2-0.2l0.1-0.2l0.2-0.2l0.2-0.2l0.1-0.2l0.2-0.2l0.6-0.6l0.2-0.2l0.6-0.5
			l0.3-0.2l0.4-0.3l0.2-0.2l0.4-0.3l0.2-0.1l1-0.4l0.4-0.1l0.4-0.1h1.1l0.5,0.1l0.3,0.1l0.5,0.2l0.2,0.1l0.2,0.2l0.2,0.2l0.1,0.2
			l0.1,0.2l0.1,0.3l0.1,0.2l0.1,0.3l0,0.3l0,0.3v0.5l0,0.3v0.3l0,0.2l0,0.3l0,0.3l-0.1,0.3l-0.1,0.2l-0.1,0.3l-0.1,0.8l-0.1,0.3
			l-0.2,0.5l-0.1,0.3l-0.1,0.3l-0.1,0.2l-0.2,0.5l-0.1,0.2l-0.1,0.3l-0.2,0.5l-0.1,0.2l-0.2,0.5l-0.1,0.3l-0.1,0.2l-0.1,0.3
			l-0.1,0.3l-0.1,0.3l-0.1,0.2l-0.1,0.3l-0.1,0.3l-0.1,0.3l-0.1,0.2l-0.1,0.3l-0.1,0.3l-0.1,0.2l-0.1,0.3l-0.1,0.2l-0.2,0.8l0,0.3
			l-0.1,0.3l-0.1,0.4l-0.1,0.4l-0.1,0.3l-0.1,0.4l-0.1,0.4l0,0.3v0.5l0,0.3v0.3l0,0.3l0,0.3l0,0.3l0.1,0.2l0.1,0.3l0.1,0.3l0.1,0.2
			l0.2,0.3l0.2,0.2l0.2,0.2l0.2,0.2l0.2,0.1l0.2,0.3l0.1,0.4l-0.1,0.4l-0.3,0.4l-0.4,0.3l-0.4,0.1l-0.4-0.1l-0.3-0.1l-0.2-0.1
			l-0.2-0.1l-0.2-0.1l-0.2-0.1l-0.2-0.2l-0.2-0.3l-0.1-0.1l-0.2-0.3l-0.4-0.6l-0.1-0.3l-0.1-0.2l-0.1-0.3l0-0.3l0-0.2l-0.1-0.8v-0.5
			l0-0.3v-0.3l0-0.3l0.1-0.4l0.1-0.4v-0.3l0.1-0.5l0.1-0.4l0.1-0.4l0.1-0.6l0.1-0.4l0.1-0.3l0-0.3l0.1-0.3l0.1-0.4l0.2-0.6l0.1-0.5
			l0.1-0.4l0.1-0.3l0.1-0.3l0.1-0.4l0.1-0.3l0.1-0.3l0.1-0.3l0.1-0.3l0.1-0.4l0.1-0.4l0.1-0.3l0.1-0.2l0.1-0.3l0.1-0.2l0.2-0.5
			l0.1-0.3l0.1-0.3l0.1-0.3l0.1-0.2l0.1-0.3l0.1-0.3l0.1-0.5l0.1-0.3l0.1-0.5v-0.6l-0.1-0.5l-0.1-0.3l-0.1-0.2l-0.2-0.2l-0.2-0.2
			l-0.2-0.1l-0.3,0l-0.4,0.1l-0.4,0.1l-0.3,0.1l-0.2,0.1l-0.4,0.3l-0.2,0.1l-0.2,0.1l-0.4,0.4l-0.4,0.4l-0.2,0.1l-0.4,0.4l-0.1,0.2
			l-0.2,0.2l-0.3,0.4l-0.2,0.2l-0.1,0.2l-0.2,0.2l-0.4,0.4l-0.3,0.5l-0.1,0.1l-0.2,0.2l-0.3,0.4l-0.2,0.3l-0.2,0.4l-0.2,0.3
			l-0.1,0.3l-0.1,0.2l-0.2,0.5l-0.1,0.3l-0.1,0.4l-0.1,0.4l-0.3,0.8l-0.1,0.2l-0.1,0.3l-0.2,0.8l0,0.2l-0.1,0.3L-551-77l-0.1,0.3
			l-0.1,0.2l-0.1,0.3l-0.1,0.5l-0.1,0.3l-0.1,0.4l-0.1,0.3l-0.1,0.3l-0.1,0.4l-0.1,0.4l-0.1,0.3l-0.1,0.5l-0.1,0.3l-0.1,0.2
			l-0.1,0.5l-0.1,0.5l-0.1,0.3l-0.1,0.2l-0.2,0.5l-0.1,0.4l-0.3,0.4l-0.4,0.3l-0.5,0.1l-0.5,0l-0.4-0.1l-0.4-0.1l-0.1-0.2l0-0.2
			l0.1-0.3l0.1-0.4l0.1-0.4l0.1-0.3l0.1-0.3l0.1-0.2l0.1-0.3l0.1-0.2l0.1-0.3l0.1-0.3l0.1-0.3l0.1-0.3l0.1-0.2l0.1-0.3l0.1-0.4
			l0.1-0.4l0.1-0.3l0.1-0.3l0.1-0.2l0.1-0.3l0.1-0.3l0.1-0.2l0.2-0.8l0.1-0.3l0.1-0.3l0.1-0.4l0.1-0.4l0.1-0.3l0.1-0.4l0.1-0.4
			l0.1-0.3l0.2-0.5l0.1-0.2l0.1-0.5l0.1-0.3l0.1-0.3l0.1-0.2l0.3-1.3l0.1-0.2l0.2-0.5l0.1-0.2l0.1-0.3l0.1-0.3l0.1-0.5l0.1-0.3
			l0.1-0.3l0.1-0.2l0-0.3v-0.8l0-0.3l-0.1-0.3l-0.1-0.3l-0.1-0.2l-0.2-0.2L-552-88l-0.2-0.1l-0.3,0l-0.3,0l-0.3,0l-0.3,0.1l-0.3,0.2
			l-0.3,0.1l-0.2,0.1l-0.4,0.4l-0.2,0.2l-0.3,0.2l-0.2,0.2l-0.2,0.2l-0.5,0.5l-0.2,0.2l-0.3,0.4l-0.2,0.2l-0.1,0.1l-0.2,0.3
			l-0.2,0.3l-0.4,0.5l-0.2,0.3l-0.2,0.2l-0.2,0.3l-0.3,0.4l-0.2,0.3l-0.1,0.3l-0.1,0.2l-0.1,0.2l-0.1,0.4l-0.1,0.4l-0.1,0.3
			l-0.1,0.4l-0.2,0.6l-0.1,0.4l-0.1,0.5l-0.1,0.4l-0.3,1l-0.1,0.3l-0.1,0.4l-0.1,0.4l-0.1,0.3l-0.1,0.2l-0.1,0.3l-0.1,0.4l-0.1,0.4
			l-0.2,0.5l-0.1,0.3l-0.2,0.7l-0.1,0.5l-0.1,0.3l-0.1,0.2l-0.1,0.3l-0.1,0.2l-0.1,0.3l-0.1,0.2l-0.1,0.3l-0.1,0.2l-0.1,0.3
			l-0.1,0.4l-0.2,0.4l-0.4,0.2l-0.5,0.1l-0.5-0.1l-0.4-0.2l-0.3-0.3l-0.1-0.3l0-0.3l0.2-0.5l0.1-0.2l0.1-0.3l0.1-0.5l0.1-0.2
			l0.1-0.3l0.1-0.3l0.1-0.1l0.1-0.3l0.1-0.2l0.1-0.3l0.1-0.3l0.1-0.2l0.1-0.3l0.1-0.2l0.1-0.3l0.1-0.3l0.1-0.3l0.1-0.4l0.1-0.4
			l0.1-0.3l0.2-0.5l0.1-0.2l0.1-0.3l0.2-0.8l0.1-0.2l0.1-0.3l0.1-0.3l0.1-0.3l0.1-0.2l0.1-0.3l0.2-0.5l0.1-0.2l0.1-0.3l0.1-0.3
			l0.1-0.2l0.1-0.5l0.2-0.5l0.1-0.2l0.1-0.3l0.1-0.3l0.1-0.3l0.1-0.2l0.2-0.8l0.1-0.3l0.1-0.3l0.1-0.2l0.2-0.5l0.1-0.2l0.1-0.3
			l0.1-0.3l0-0.2l-0.1,0l-0.1,0.1l-1,0.9l-0.4,0.3l-0.2,0.1l-0.5,0.2l-0.2,0.1l-0.2,0.1l-0.2,0.1l-0.3,0.1l-0.2,0.1l-0.2,0.1
			l-0.2,0.1l-0.3,0.1l-0.3,0.2l-0.3,0.1l-0.3,0.1l-0.2,0.1l-0.3,0.1l-0.1,0.1l-0.3,0.2l-0.2,0.1l-0.4,0.4l-0.1,0.2l-0.1,0.2
			l-0.1,0.5l0,0.3v0.6l0.1,0.3l0.1,0.2l0.2,0.2l0.2,0.2l0.3,0.1l0.3,0.1l0.3,0.2l0.1,0.4l-0.1,0.4l-0.2,0.3l-0.2,0.1h-0.3l-0.2,0
			l-0.3-0.1l-0.4-0.1l-0.4-0.1l-0.2-0.1l-0.2-0.1l-0.2-0.1l-0.2-0.2l-0.3-0.3l-0.2-0.3l-0.2-0.2l-0.1-0.3l-0.1-0.3l-0.1-0.4
			l-0.1-0.4v-0.6l0.1-0.2l0.1-0.3l0.2-0.6l0.2-0.3l0.1-0.3l0.2-0.3l0.2-0.3l0.2-0.2l0.2-0.1l0.2-0.2l0.2-0.1l0.3-0.1l0.3-0.1
			l0.3-0.2l0.3-0.1l0.3-0.1l0.6-0.2l0.5-0.2l0.7-0.3l0.6-0.3l0.3-0.1l0.3-0.1l0.2-0.1l0.5-0.3l0.3-0.2l0.3-0.1l0.2-0.2l0.2-0.1
			l0.2-0.2l0.4-0.4l0.2-0.1l0.2-0.2l0.2-0.1l0.2-0.2l0.5-0.6l0.1-0.2l0.2-0.2l0.2-0.1l0.3-0.1h0.3l0.3,0l0.3,0.1l0.2,0.1l0.2,0.2
			l0.1,0.2l0,0.3l-0.2,0.8l-0.1,0.2l-0.1,0.3l-0.1,0.2l-0.1,0.3l-0.1,0.3l-0.1,0.3l-0.1,0.2l-0.2,0.8l-0.1,0.2l0,0.1l0.1-0.1
			l0.2-0.2l0.1-0.2l0.2-0.3l0.4-0.4l0.2-0.2l0.2-0.3l0.3-0.3l0.2-0.2l0.4-0.4l0.2-0.2l0.2-0.2l0.2-0.2l0.2-0.2l0.2-0.1l0.2-0.2
			l0.3-0.1l0.1-0.1l0.3-0.2l0.2-0.1l0.2-0.1l0.3-0.1l0.4-0.1l0.3-0.1l0.3-0.1l0.3,0h1L-550.9-89.8z"/>
		<path id="XMLID_896_" d="M-529.5-76.5l-0.1,0.2l-0.4,0.4l-0.4,0.4l-0.2,0.1l-0.3,0.1l-0.2,0.1l-0.3,0.2l-0.2,0.1l-0.3,0.1
			l-0.3,0.1l-0.3,0.1l-0.3,0l-0.3,0.1l-0.3,0l-0.4,0.1l-0.3,0h-0.3l-0.5-0.1l-0.5,0l-0.3,0l-0.8-0.2h-0.2l-0.1,0.1l-0.1,0.2v0.3
			l0,0.3v0.5l0,0.3l0.1,0.2l0.2,0.5l0.3,0.5l0.2,0.2l0.2,0.2l0.5,0.3l0.3,0.1l0.3,0.1l0.2,0l0.3,0.1l0.3,0h0.3l0.3,0l0.8-0.1
			l0.3-0.1l0.3-0.1l0.2-0.1l0.5-0.2l0.5-0.2l0.4-0.3l0.2-0.1l0.2-0.2l0.4-0.4l0.4-0.4l0.1-0.2l0.2-0.2l0.3-0.4l0.1-0.2l0.1-0.2
			l0.1-0.2l0.1-0.2l0.1-0.2l0.1-0.2l0.1-0.3l0.1-0.2l0.1-0.2l0.2-0.1h0.3l0.3,0.2l0.1,0.3l0,0.3l-0.1,0.3l-0.1,0.3l-0.2,0.3
			l-0.1,0.3l-0.2,0.3l-0.2,0.3l-0.3,0.5l-0.1,0.2l-0.2,0.3l-0.3,0.4l-0.2,0.2l-0.2,0.2l-0.2,0.2l-0.2,0.2l-0.1,0.1l-0.2,0.2
			l-0.2,0.2l-0.4,0.4l-0.3,0.2l-0.3,0.2l-0.5,0.3l-0.7,0.3l-0.2,0.1l-0.3,0.1l-0.4,0.1l-0.4,0.1l-0.6,0.1l-0.4,0l-0.3,0h-0.3
			l-1.1-0.1l-0.2-0.1l-0.3-0.1l-0.3-0.1l-0.2-0.1l-0.5-0.3l-0.2-0.1l-0.2-0.2l-0.2-0.2l-0.1-0.1l-0.2-0.2l-0.2-0.2l-0.1-0.2
			l-0.1-0.2l-0.1-0.3l-0.1-0.2l-0.1-0.3l-0.1-0.3l-0.1-0.2l-0.1-0.3l-0.1-0.8v-0.6l0-0.3v-0.3l0.2-0.8l0.1-0.2l0.1-0.3l0.1-0.3
			l0.1-0.3l0.1-0.3l0.1-0.3l0.1-0.4l0.1-0.3l0.2-0.3l0.2-0.3l0.1-0.3l0.1-0.2l0.2-0.2l0.4-0.5l0.4-0.4l0.2-0.2l0.3-0.2l0.3-0.2
			l0.3-0.2l0.3-0.2l0.3-0.1l0.3-0.1l0.4-0.2l0.6-0.2l0.5-0.1l0.4-0.1h0.6l0.4,0.1l0.5,0.1l0.4,0.1l0.3,0.1l0.3,0.1l0.2,0.1l0.2,0.1
			l0.4,0.4l0.2,0.2l0.2,0.3l0.1,0.4l0.1,0.3l0.1,0.3l0,0.3v0.4l0,0.4l0,0.3l-0.1,0.4l-0.1,0.4l-0.1,0.3l-0.1,0.1l-0.1,0.3
			L-529.5-76.5z M-533.1-80l-0.4,0.2l-0.4,0.2l-0.2,0.1l-0.4,0.4l-0.3,0.3l-0.2,0.3l-0.2,0.2l-0.2,0.3l-0.2,0.3l-0.1,0.3l-0.2,0.3
			l-0.1,0.4l-0.1,0.3l-0.1,0.2l0,0.2l0.1,0.1l0.4,0.1l0.6,0l0.3,0h0.8l0.3-0.1l0.3-0.1l0.3-0.1l0.2-0.1l0.3-0.1l0.2-0.1l0.2-0.2
			l0.2-0.2l0.2-0.2l0.2-0.2l0.1-0.2l0.1-0.2l0.1-0.3l0.2-0.5l0.1-0.3l0-0.3l0-0.3l-0.1-0.3l-0.2-0.2l-0.2-0.2l-0.3-0.1l-0.3-0.1
			l-0.3,0l-0.3,0.1L-533.1-80z"/>
		<path id="XMLID_885_" d="M-526-78.9l0.2-0.2l0.4-0.4l0.6-0.5l0.2-0.1l0.2-0.2l0.2-0.1l0.2-0.1l0.3-0.1l0.4-0.2l0.3-0.1l0.5-0.2
			l0.2-0.1l0.5-0.1l0.3,0l0.3,0l0.5-0.1h0.7l0.4,0.1l0.3,0.1l0.2,0l0.2-0.1l0.1-0.2l0.1-0.3l0.2-0.5l0.1-0.2l0.1-0.3l0.2-0.5
			l0.1-0.3l0.1-0.2l0.1-0.3l0.1-0.2l0.2-0.5l0.1-0.2l0.3-0.9l0.1-0.4l0.2-0.5l0.1-0.2l0.1-0.3l0.1-0.2l0.2-0.5l0.1-0.2l0.3-0.5
			l0.1-0.2l0.3-0.2l0.3-0.1h0.3l0.3,0l0.3,0.1l0.2,0.1l0.3,0.1l0.2,0.1l0.1,0.2l-0.1,0.2l-0.1,0.3l-0.1,0.3l-0.1,0.2l-0.1,0.2
			l-0.1,0.3l-0.1,0.4l-0.1,0.4l-0.1,0.3l-0.4,0.9l-0.1,0.4l-0.1,0.4l-0.1,0.3l-0.1,0.2l-0.2,0.6l-0.1,0.4l-0.1,0.3l-0.3,1l-0.1,0.3
			l-0.1,0.2l-0.1,0.3l-0.1,0.2l-0.1,0.3l-0.1,0.2l-0.1,0.3l-0.1,0.2l-0.1,0.3l-0.1,0.3l-0.1,0.2l-0.1,0.3l-0.1,0.3l-0.1,0.2
			l-0.1,0.3l-0.1,0.3l-0.1,0.4l-0.1,0.4l-0.1,0.2l-0.1,0.3l-0.1,0.3l-0.1,0.4l-0.1,0.4l-0.2,0.8l0,0.3l-0.1,0.3l-0.1,0.4l-0.1,0.4
			l0,0.3l-0.1,0.3l0,0.3v0.3l0,0.3l0,0.4l0.1,0.4l0.1,0.3l0.2,0.2l0.2,0.1l0.3,0l0.2-0.1l0.3-0.1l0.2-0.1l0.5-0.5l0.2-0.2l0.3-0.4
			l0.3-0.5l0.4-0.6l0.1-0.2l0.1-0.2l0.1-0.3l0.3-0.6l0.1-0.3l0.1-0.2l0.1-0.3l0.1-0.3l0.3-0.2l0.4,0.1l0.2,0.3v0.4l-0.1,0.4
			l-0.1,0.3l-0.2,0.3l-0.2,0.4l-0.1,0.2l-0.4,0.7l-0.2,0.3l-0.4,0.6l-0.3,0.5l-0.1,0.2l-0.2,0.2l-0.1,0.2l-0.2,0.2l-0.2,0.2
			l-0.2,0.2l-0.1,0.1l-0.2,0.2l-0.2,0.2l-0.2,0.1l-0.2,0.1l-0.2,0.1l-0.8,0.3l-0.3,0.1h-0.2l-0.3,0l-0.3,0l-0.3-0.1l-0.2-0.1
			l-0.2-0.1l-0.2-0.1l-0.2-0.2l-0.3-0.4l-0.1-0.2l-0.1-0.3l-0.1-0.2l-0.1-0.8v-0.6l-0.1,0l-0.1,0.2l-0.1,0.2l-0.3,0.5l-0.1,0.2
			l-0.2,0.2l-0.3,0.4l-0.2,0.2l-0.6,0.5L-523-70l-0.3,0.2l-0.3,0.2l-0.2,0.1l-0.3,0.1l-0.7,0.1l-0.3,0.1l-0.3,0l-0.2,0l-0.3,0
			l-0.3-0.1l-0.2-0.1l-0.3-0.1l-0.2-0.1l-0.2-0.2l-0.3-0.3l-0.3-0.2l-0.1-0.2l-0.1-0.2l-0.1-0.3l-0.2-0.5l-0.1-0.3l0-0.3l0-0.4v-0.4
			l0-0.3v-0.3l0-0.3l0-0.4l0.1-0.4l0.1-0.3l0.1-0.3l0-0.2l0.1-0.3l0.1-0.3l0.3-0.7l0.1-0.3l0.2-0.5l0.2-0.3l0.1-0.3l0.2-0.3l0.1-0.1
			l0.2-0.2l0.3-0.4L-526-78.9z M-520-79.9l-0.6,0h-0.3l-0.3,0.1l-0.3,0.1l-0.2,0.1l-0.3,0.1l-0.3,0.1l-0.3,0.1l-0.2,0.1l-0.2,0.1
			l-0.2,0.2l-0.2,0.2l-0.4,0.4l-0.2,0.2L-524-78l-0.4,0.4l-0.1,0.2l-0.1,0.3l-0.4,0.6l-0.1,0.2l-0.1,0.2l-0.1,0.3l-0.1,0.2l-0.1,0.3
			l-0.2,0.7l-0.1,0.3l-0.1,0.4l0,0.4l0,0.3l0.1,0.4l0.1,0.5l0.1,0.4l0.1,0.3l0.1,0.2l0.2,0.2l0.2,0.2l0.3,0.1l0.4,0.1l0.4,0l0.3-0.1
			l0.2-0.1l0.3-0.1l0.2-0.1l0.4-0.4l0.2-0.2l0.2-0.2l0.2-0.2l0.1-0.2l0.1-0.2l0.2-0.3l0.2-0.4l0.2-0.3l0.1-0.2l0.1-0.3l0.1-0.2
			l0.1-0.3l0.1-0.4l0.1-0.3l0.1-0.3l0.1-0.2l0.4-1.2l0.1-0.4l0.2-0.9l0.1-0.4l0.1-0.3l0.1-0.3l-0.1-0.3l-0.2-0.1H-520z"/>
		<path id="XMLID_879_" d="M-507.1-75.8v0.3l-0.1,0.3l-0.2,0.5l-0.3,0.4l-0.1,0.3l-0.1,0.2l-0.2,0.3l-0.1,0.2l-0.1,0.3l-0.1,0.2
			l-0.1,0.2l-0.2,0.2l-0.1,0.2l-0.3,0.5l-0.5,0.6l-0.4,0.4l-0.2,0.2l-0.2,0.2l-0.2,0.2l-0.6,0.5l-0.2,0.1l-0.3,0.1l-0.3,0.1
			l-0.2,0.1l-0.5,0.1h-0.5l-0.3,0l-0.2-0.1l-0.3-0.1l-0.2-0.1l-0.2-0.2l-0.1-0.2l-0.1-0.2l-0.1-0.3l-0.1-0.2l-0.1-0.3l0-0.3v-0.3
			l0.1-0.5l0.1-0.3l0.1-0.3l0.1-0.5l0.1-0.2l0.1-0.3l0.1-0.3l0.1-0.2l0.3-0.8l0-0.2l0.1-0.3l0.1-0.3l0.1-0.3l0.1-0.2l0.2-0.5
			l0.1-0.4l0.1-0.4l0.2-0.5l0.1-0.3l0.1-0.2l0.1-0.3l0.1-0.3l0.1-0.2l0.2-0.8l0.1-0.3l0.1-0.4l0.1-0.4l0.1-0.3l0.1-0.2l0.2-0.1
			l0.3-0.1l0.2,0l0.3,0l0.5,0.1l0.5,0.2l0.1,0.2v0.3l-0.1,0.3l-0.1,0.4l-0.1,0.4l-0.2,0.5l-0.1,0.2l-0.1,0.3l-0.1,0.3l-0.1,0.4
			l-0.3,0.9l-0.1,0.3l-0.1,0.4l-0.2,0.6l-0.1,0.3l-0.1,0.2l-0.1,0.3l-0.2,0.5l-0.1,0.3l-0.2,0.7l-0.2,0.5l-0.1,0.3l-0.1,0.4
			l-0.1,0.5l-0.1,0.5l0.1,0.4l0.2,0.3l0.3,0.1l0.3,0l0.3-0.1l0.2-0.1l0.2-0.2l1-1l0.2-0.2l0.1-0.2l0.2-0.2l0.3-0.5l0.2-0.2l0.1-0.2
			l0.1-0.2l0.2-0.3l0.1-0.3l0.2-0.5l0.4-0.7l0.1-0.2l0.3-0.1l0.4,0.1L-507.1-75.8z M-511.9-84.8l0.1-0.2l0.2-0.2l0.2-0.1l0.3-0.1
			l0.3-0.1h0.3l0.3,0.1l0.2,0.1l0.2,0.2l0.2,0.2l0.1,0.2l0.1,0.3l0,0.3v0.3l-0.1,0.3l-0.1,0.2l-0.2,0.2l-0.2,0.2l-0.2,0.2l-0.3,0.1
			l-0.3,0.1l-0.3,0l-0.3-0.1l-0.5-0.3l-0.2-0.2l-0.1-0.2l-0.1-0.3l0-0.3l0-0.3l0.1-0.3L-511.9-84.8z"/>
		<path id="XMLID_868_" d="M-493.7-75l-0.1,0.1l-0.1,0.3l-0.1,0.2l-0.1,0.2l-0.1,0.3l-0.1,0.2l-0.3,0.5l-0.1,0.2l-0.1,0.2l-0.1,0.2
			l-0.1,0.2l-0.2,0.2l-0.2,0.2l-0.2,0.2l-0.3,0.4l-0.2,0.2l-0.2,0.2l-0.8,0.7l-0.2,0.1l-0.3,0.1l-0.3,0.1l-0.4,0.1l-0.3,0.1
			l-0.3,0.1h-0.3l-0.4,0l-0.4-0.1l-0.3-0.1l-0.2-0.1l-0.2-0.2l-0.2-0.3l-0.2-0.3l-0.1-0.3l-0.1-0.4l0-0.4v-0.3l0-0.4l0-0.4l-0.1-0.1
			l-0.1,0.2l-0.3,0.5l-0.3,0.4l-0.2,0.2l-0.1,0.2l-0.2,0.2l-0.1,0.2l-0.2,0.2l-0.2,0.2l-0.2,0.2l-0.2,0.1l-0.2,0.1l-0.3,0.2
			l-0.4,0.2l-0.5,0.1l-0.4,0.1l-0.5,0.1l-0.3,0l-0.4-0.1l-0.4-0.1l-0.3-0.1l-0.2-0.1l-0.2-0.1L-508-70l-0.1-0.2l-0.1-0.2l-0.2-0.3
			l-0.2-0.4l-0.1-0.4l0-0.3l-0.1-0.4l0-0.5v-0.4l0-0.3l0-0.4l0.1-0.4l0.1-0.3l0.1-0.4l0.1-0.4l0.1-0.3l0.1-0.2l0.1-0.3l0.7-1.4
			l0.1-0.2l0.1-0.2l0.1-0.2l0.3-0.4l0.2-0.2l0.4-0.4l0.1-0.1l0.2-0.2l0.4-0.4l0.3-0.3l0.3-0.2l0.4-0.3l0.2-0.1l0.2-0.1l0.3-0.1
			l0.4-0.1l0.3-0.2l0.3-0.1l0.4-0.1l0.4-0.1l0.3-0.1l0.7-0.1l0.3,0h0.4l0.6,0l0.7,0.1l0.6,0.1l0.3,0.1l0.3,0.1l1.2,0.5l0.2,0.2
			l0.2,0.1l0.2,0.2l0.2,0.2l0.1,0.3l-0.1,0.4l-0.3,0.4l-0.3,0.2l-0.2,0l-0.2-0.1l-0.2-0.2l-0.3-0.1l-0.2-0.1l-0.2-0.1l-0.2-0.1
			l-0.3-0.1l-0.2-0.1l-0.5-0.1l-0.3-0.1l-0.3-0.1h-0.6l-0.2,0l-0.3,0l-0.4,0.1l-0.7,0.3l-0.3,0.1l-0.3,0.2l-0.2,0.1l-0.2,0.1
			l-0.2,0.1l-0.2,0.2l-0.2,0.2l-0.1,0.1l-0.2,0.2l-0.2,0.2l-0.1,0.2l-0.4,0.4l-0.1,0.2L-505-77l-0.4,0.7l-0.1,0.2l-0.2,0.5l-0.1,0.3
			L-506-75l-0.2,0.8l-0.1,0.3l-0.1,0.8v0.8l0,0.3l0.1,0.3l0.1,0.2l0.1,0.2l0.2,0.2l0.3,0.1l0.4,0.1l0.4,0l0.3-0.1l0.5-0.2l0.4-0.4
			l0.2-0.2l0.2-0.2l0.2-0.2l0.1-0.2l0.2-0.2l0.1-0.2l0.3-0.4l0.1-0.2l0.4-0.7l0.2-0.3l0.2-0.4l0.1-0.2l0.4-0.8l0.1-0.3l0.1-0.2
			l0.1-0.3l0.1-0.2l0.1-0.3l0.1-0.3l0.2-0.6l0.1-0.3l0.1-0.3l0.2-0.3l0.3-0.1l0.3-0.1l0.3,0l0.3,0.1l0.5,0.2l0.2,0.1l0.1,0.2l0,0.3
			l-0.1,0.2l-0.1,0.3l-0.1,0.3l-0.1,0.5l-0.1,0.3l-0.1,0.2l-0.2,0.5l-0.1,0.3l0,0.2l-0.1,0.4l-0.1,0.3l-0.1,0.5l-0.1,0.4l-0.1,0.3
			l-0.1,0.3l-0.1,0.4l-0.1,0.5l0,0.4l0,0.4l0.1,0.2l0.3,0.1l0.4,0l0.4-0.1l0.3-0.1l0.4-0.3l0.2-0.2l0.4-0.4l0.4-0.4l0.3-0.4l0.1-0.2
			l0.2-0.2l0.1-0.2l0.5-0.7l0.1-0.2l0.1-0.2l0.6-1.2l0.3-0.1l0.4,0.1l0.2,0.3l0,0.3l-0.1,0.3L-493.7-75z"/>
	</g>
</g>
</svg>
